<?xml version="1.0" standalone="no"?>
<!DOCTYPE svg PUBLIC "-//W3C//DTD SVG 1.1//EN" "http://www.w3.org/Graphics/SVG/1.1/DTD/svg11.dtd" >
<svg xmlns="http://www.w3.org/2000/svg" width="100%" height="100%">
<metadata>
Created by FontXChange 20110222 at Tue Apr  9 10:50:00 2013
 By Trae Regan
 Copyright 1987, 1991, 1993, 2002 Fundicion Tipografica Neufville S. A.
 This record material and the data recorded thereon is the property of
 Fundicion Tipografica Neufville S. A. and Adobe Systems Incorporated, 
 or its licensors, and may not be reproduced, used, displayed, modified,
 disclosed or transferred in any manner without the express written
 approval of Fundicion Tipografica Neufville S. A. and Adobe Systems
 Incorporated. 
</metadata>
<defs>
<font id="FuturaStd-Light" horiz-adv-x="620" >
  <font-face 
    font-family="FuturaStd"
    font-weight="300"
    font-stretch="normal"
    units-per-em="1000"
    panose-1="2 11 4 2 2 2 4 2 3 3"
    ascent="825"
    descent="-175"
    x-height="462"
    cap-height="754"
    bbox="-175 -302 1127 971"
    underline-thickness="50"
    underline-position="-50"
    stemh="42"
    stemv="45"
    unicode-range="U+0020-FB02"
  />
<missing-glyph horiz-adv-x="500" 
d="M0 0v700h500v-700h-500zM250 395l170 255h-340zM280 350l170 -255v510zM80 50h340l-170 255zM50 605v-510l170 255z" />
    <glyph glyph-name="fi" unicode="fi" horiz-adv-x="475" 
d="M380 462v-462h-45v462h45zM358 657c23 0 41 -19 41 -41c0 -23 -18 -41 -41 -41s-41 18 -41 41c0 22 18 41 41 41zM122 420v-420h-45v420h-51v42h51v207c0 34 1 83 18 113c21 37 61 56 103 56c14 0 27 -2 40 -7v-41c-12 2 -24 6 -37 6c-78 0 -79 -78 -79 -136v-198h116
v-42h-116z" />
    <glyph glyph-name="fl" unicode="fl" horiz-adv-x="439" 
d="M122 420v-420h-45v420h-51v42h51v207c0 34 1 83 18 113c21 37 61 56 103 56c14 0 27 -2 40 -7v-41c-12 2 -24 6 -37 6c-78 0 -79 -78 -79 -136v-198h116v-42h-116zM362 825v-825h-45v825h45z" />
    <glyph glyph-name=".notdef" horiz-adv-x="500" 
d="M0 0v700h500v-700h-500zM250 395l170 255h-340zM280 350l170 -255v510zM80 50h340l-170 255zM50 605v-510l170 255z" />
    <glyph glyph-name="space" unicode=" " horiz-adv-x="310" 
 />
    <glyph glyph-name="exclam" unicode="!" horiz-adv-x="320" 
d="M160 72c23 0 41 -18 41 -41s-18 -41 -41 -41s-41 18 -41 41s18 41 41 41zM136 143v611h48v-611h-48z" />
    <glyph glyph-name="quotedbl" unicode="&#x22;" horiz-adv-x="278" 
d="M58 754h48l-11 -240h-27zM172 754h48l-11 -240h-27z" />
    <glyph glyph-name="numbersign" unicode="#" 
d="M536 276v-48h-126l-37 -228h-46l36 228h-135l-33 -228h-48l33 228h-121v48h128l23 162h-123v48h130l32 212h50l-32 -212h136l32 212h50l-33 -212h110v-48h-118l-26 -162h118zM395 438h-136l-24 -162h136z" />
    <glyph glyph-name="dollar" unicode="$" 
d="M347 362v-322c80 20 142 90 142 174c0 81 -79 118 -142 148zM302 437v279c-73 0 -128 -70 -128 -141c0 -77 70 -108 128 -138zM302 38v346c-82 41 -176 81 -176 189c0 107 71 183 176 191v105h45v-107c63 -8 122 -47 153 -104l-37 -30c-25 43 -65 82 -116 88v-300
c94 -48 190 -83 190 -206c0 -108 -88 -198 -190 -218v-113h-45v111c-105 3 -183 63 -219 163l41 19c29 -77 94 -138 178 -134z" />
    <glyph glyph-name="percent" unicode="%" horiz-adv-x="664" 
d="M180 761c85 0 152 -62 152 -149c0 -85 -68 -147 -152 -147s-152 62 -152 147c0 87 67 149 152 149zM180 719c-59 0 -110 -47 -110 -107c0 -58 51 -105 110 -105s110 47 110 105c0 60 -51 107 -110 107zM484 289c85 0 152 -62 152 -149c0 -85 -68 -147 -152 -147
s-152 62 -152 147c0 87 67 149 152 149zM484 247c-59 0 -110 -47 -110 -107c0 -58 51 -105 110 -105s110 47 110 105c0 60 -51 107 -110 107zM538 771l33 -17l-448 -771l-31 18z" />
    <glyph glyph-name="ampersand" unicode="&#x26;" horiz-adv-x="642" 
d="M316 723c-55 0 -96 -52 -96 -105c0 -54 40 -94 67 -139c53 42 121 74 121 150c0 51 -40 94 -92 94zM592 0l-95 125c-84 -71 -180 -140 -278 -140c-111 0 -197 90 -197 199c0 132 126 209 229 274c-35 49 -79 100 -79 165c0 80 68 145 147 145c78 0 137 -63 137 -140
c0 -86 -68 -136 -141 -186l186 -254l96 105l37 -20l-105 -120l115 -153h-52zM279 420l-48 -32c-72 -46 -161 -104 -161 -199c0 -85 61 -159 149 -159s180 75 250 133z" />
    <glyph glyph-name="quoteright" unicode="&#x2019;" horiz-adv-x="259" 
d="M141 764l45 -13l-83 -227l-30 11z" />
    <glyph glyph-name="parenleft" unicode="(" horiz-adv-x="240" 
d="M137 780l37 -26c-41 -145 -63 -301 -63 -459c0 -146 22 -299 63 -447l-37 -25c-51 130 -71 333 -71 472c0 142 18 351 71 485z" />
    <glyph glyph-name="parenright" unicode=")" horiz-adv-x="240" 
d="M66 754l37 26c53 -134 71 -343 71 -485c0 -139 -20 -342 -71 -472l-37 25c41 148 63 301 63 447c0 158 -22 314 -63 459z" />
    <glyph glyph-name="asterisk" unicode="*" horiz-adv-x="619" 
d="M289 604l-4 150h49l-4 -150l142 50l15 -47l-144 -43l92 -119l-40 -29l-85 124l-86 -124l-39 28l91 120l-144 43l15 47z" />
    <glyph glyph-name="plus" unicode="+" 
d="M286 280v232h48v-232h232v-48h-232v-232h-48v232h-232v48h232z" />
    <glyph glyph-name="comma" unicode="," horiz-adv-x="310" 
d="M153 74l45 -14l-83 -226l-30 11z" />
    <glyph glyph-name="hyphen" unicode="-" horiz-adv-x="190" 
d="M0 342h190v-45h-190v45z" />
    <glyph glyph-name="period" unicode="." horiz-adv-x="310" 
d="M155 72c23 0 41 -18 41 -41s-18 -41 -41 -41s-41 18 -41 41s18 41 41 41z" />
    <glyph glyph-name="slash" unicode="/" horiz-adv-x="640" 
d="M570 825l35 -18l-533 -949l-37 19z" />
    <glyph glyph-name="zero" unicode="0" 
d="M310 764c187 0 274 -224 274 -382c0 -156 -82 -392 -274 -392s-274 236 -274 392c0 158 87 382 274 382zM310 35c161 0 226 211 226 347c0 119 -65 337 -226 337s-226 -218 -226 -337c0 -136 65 -347 226 -347z" />
    <glyph glyph-name="one" unicode="1" 
d="M308 709h-119l23 45h144v-754h-48v709z" />
    <glyph glyph-name="two" unicode="2" 
d="M176 45h358v-45h-465l281 309c57 63 139 149 139 237c0 98 -81 173 -178 173c-103 0 -181 -75 -178 -178h-48c2 54 10 100 47 143c44 49 114 80 179 80c125 0 226 -95 226 -221c0 -101 -77 -183 -142 -254z" />
    <glyph glyph-name="three" unicode="3" 
d="M302 370v45c89 2 160 65 160 157c0 82 -68 147 -149 147c-87 0 -141 -57 -146 -143h-48c8 114 78 188 195 188c108 0 196 -85 196 -194c0 -77 -43 -144 -113 -175c76 -29 124 -104 124 -183c0 -125 -95 -222 -221 -222c-113 0 -210 79 -209 195h48
c8 -87 68 -150 160 -150c95 0 174 80 174 174c0 98 -77 161 -171 161z" />
    <glyph glyph-name="four" unicode="4" 
d="M467 188h106v-45h-106v-143h-48v143h-407v6l449 631h6v-592zM419 188v446h-6l-313 -440v-6h319z" />
    <glyph glyph-name="five" unicode="5" 
d="M531 709h-252l-63 -204c19 6 38 8 57 8c145 0 256 -114 256 -257c0 -154 -120 -266 -272 -266c-91 0 -175 47 -223 125l44 18c39 -59 109 -98 180 -98c126 0 223 95 223 222c0 120 -101 211 -220 211c-44 0 -78 -12 -115 -34l98 320h287v-45z" />
    <glyph glyph-name="six" unicode="6" 
d="M340 764l39 -29l-166 -235l2 -2c31 13 64 20 100 20c145 0 263 -121 263 -265c0 -67 -30 -132 -75 -181c-51 -55 -120 -82 -194 -82c-146 0 -267 115 -267 263c0 64 18 114 55 166zM310 35c120 0 220 98 220 219c0 120 -100 219 -220 219c-121 0 -220 -99 -220 -219
c0 -121 99 -219 220 -219z" />
    <glyph glyph-name="seven" unicode="7" 
d="M528 709h-458v45h547l-540 -762l-37 29z" />
    <glyph glyph-name="eight" unicode="8" 
d="M310 369c-93 0 -171 -74 -171 -167s78 -167 171 -167c92 0 171 74 171 167s-79 167 -171 167zM310 -10c-118 0 -219 87 -219 207c0 90 42 157 123 196c-65 32 -106 101 -106 172c0 114 88 199 202 199s202 -85 202 -199c0 -71 -41 -140 -106 -172
c81 -39 123 -106 123 -196c0 -120 -101 -207 -219 -207zM310 719c-84 0 -154 -69 -154 -153s69 -152 154 -152c84 0 154 68 154 152s-71 153 -154 153z" />
    <glyph glyph-name="nine" unicode="9" 
d="M280 -8l-39 29l167 235l-2 2c-32 -13 -64 -20 -101 -20c-144 0 -263 120 -263 264c0 147 124 262 269 262c151 0 267 -116 267 -267c0 -61 -21 -112 -55 -161zM311 719c-120 0 -221 -97 -221 -218c0 -120 101 -218 221 -218s219 98 219 218c0 121 -99 218 -219 218z" />
    <glyph glyph-name="colon" unicode=":" horiz-adv-x="310" 
d="M155 72c23 0 41 -18 41 -41s-18 -41 -41 -41s-41 18 -41 41s18 41 41 41zM155 472c23 0 41 -18 41 -41s-18 -41 -41 -41s-41 18 -41 41s18 41 41 41z" />
    <glyph glyph-name="semicolon" unicode=";" horiz-adv-x="310" 
d="M153 74l45 -14l-83 -226l-30 11zM161 472c23 0 41 -18 41 -41s-18 -41 -41 -41s-41 18 -41 41s18 41 41 41z" />
    <glyph glyph-name="less" unicode="&#x3c;" 
d="M106 256l460 -215v-46l-512 235v53l512 223v-46z" />
    <glyph glyph-name="equal" unicode="=" 
d="M566 365v-48h-512v48h512zM566 195v-48h-512v48h512z" />
    <glyph glyph-name="greater" unicode="&#x3e;" 
d="M54 41l460 215l-460 204v46l512 -223v-53l-512 -235v46z" />
    <glyph glyph-name="question" unicode="?" horiz-adv-x="491" 
d="M354 303h48c4 -91 -60 -161 -156 -161c-87 0 -158 63 -158 149c0 92 61 132 143 153c83 22 146 39 146 138c0 75 -54 137 -133 137c-75 0 -131 -55 -130 -127c0 -18 1 -36 5 -53h-46c-4 21 -7 42 -7 64c0 96 85 161 179 161c108 0 180 -75 180 -180
c0 -113 -66 -154 -166 -179c-63 -16 -123 -32 -123 -111c0 -62 47 -107 112 -107c68 0 107 56 106 116zM243 72c23 0 41 -18 41 -41s-18 -41 -41 -41s-41 18 -41 41s18 41 41 41z" />
    <glyph glyph-name="at" unicode="@" horiz-adv-x="800" 
d="M337 193c65 2 124 65 141 119l47 147c11 36 -29 107 -102 107c-105 0 -192 -160 -192 -262c0 -58 37 -113 106 -111zM551 541l15 47h44l-103 -324c-11 -35 -21 -71 34 -71c83 0 177 143 177 252c0 166 -150 277 -301 277c-185 0 -335 -164 -335 -349s157 -341 337 -341
c111 0 217 46 273 136h56c-56 -106 -176 -178 -329 -178c-214 0 -379 175 -379 390c0 213 172 384 375 384c192 0 345 -136 345 -323c0 -161 -126 -290 -233 -290c-35 0 -65 17 -75 49c-41 -35 -88 -49 -130 -49c-86 0 -133 64 -133 147c0 137 94 310 242 310
c47 0 92 -24 120 -67z" />
    <glyph glyph-name="A" unicode="A" horiz-adv-x="641" 
d="M486 248h-331l-101 -248h-49l316 779l315 -779h-49zM468 293l-147 364l-148 -364h295z" />
    <glyph glyph-name="B" unicode="B" horiz-adv-x="565" 
d="M129 367v-322h115c53 0 108 -2 154 29s74 78 74 134c0 55 -27 110 -78 135c-46 23 -109 24 -159 24h-106zM274 0h-193v754h151c57 0 111 -4 156 -44c46 -40 63 -96 63 -156c0 -69 -27 -120 -87 -154c93 -19 156 -94 156 -190c0 -61 -23 -116 -70 -156
c-53 -45 -109 -54 -176 -54zM129 709v-297h83c51 0 92 -3 135 28s56 69 56 121c0 49 -19 97 -62 124c-38 24 -85 24 -129 24h-83z" />
    <glyph glyph-name="C" unicode="C" horiz-adv-x="739" 
d="M680 666v-66c-58 71 -160 119 -253 119c-188 0 -343 -162 -343 -347c0 -88 38 -171 101 -233c63 -60 153 -104 242 -104c87 0 197 47 253 115v-66c-71 -59 -158 -94 -251 -94c-210 0 -393 175 -393 386c0 214 180 388 394 388c91 0 183 -36 250 -98z" />
    <glyph glyph-name="D" unicode="D" horiz-adv-x="652" 
d="M81 0v754h136c110 0 197 -18 280 -95c79 -74 120 -175 120 -283c0 -104 -40 -203 -116 -276c-83 -80 -172 -100 -284 -100h-136zM129 45h87c99 0 181 20 253 91c64 64 100 150 100 240c0 96 -38 186 -109 251c-72 65 -150 82 -244 82h-87v-664z" />
    <glyph glyph-name="E" unicode="E" horiz-adv-x="507" 
d="M441 709h-312v-274h304v-45h-304v-345h312v-45h-360v754h360v-45z" />
    <glyph glyph-name="F" unicode="F" horiz-adv-x="444" 
d="M385 709h-256v-274h249v-45h-249v-390h-48v754h304v-45z" />
    <glyph glyph-name="G" unicode="G" horiz-adv-x="824" 
d="M470 363h318c2 -95 -12 -178 -79 -251c-72 -78 -180 -122 -286 -122c-209 0 -387 176 -387 384c0 216 177 390 393 390c137 0 248 -68 327 -176l-39 -31c-67 100 -169 162 -291 162c-184 0 -342 -161 -342 -342c0 -186 154 -342 342 -342c81 0 160 33 222 83
c65 55 89 118 92 200h-270v45z" />
    <glyph glyph-name="H" unicode="H" horiz-adv-x="716" 
d="M129 434h458v320h48v-754h-48v389h-458v-389h-48v754h48v-320z" />
    <glyph glyph-name="I" unicode="I" horiz-adv-x="210" 
d="M129 754v-754h-48v754h48z" />
    <glyph glyph-name="J" unicode="J" horiz-adv-x="218" 
d="M89 754h48v-740c0 -94 -23 -172 -133 -172c-55 0 -102 33 -125 82l36 27c17 -36 53 -64 93 -64c75 0 81 70 81 127v740z" />
    <glyph glyph-name="K" unicode="K" horiz-adv-x="569" 
d="M129 402l358 352h64l-369 -363l392 -391h-63l-362 360l-20 -20v-340h-48v754h48v-352z" />
    <glyph glyph-name="L" unicode="L" horiz-adv-x="327" 
d="M129 754v-709h192v-45h-240v754h48z" />
    <glyph glyph-name="M" unicode="M" horiz-adv-x="897" 
d="M842 0l-129 624h-2l-263 -649l-262 649h-2l-129 -624h-46l162 779l277 -686l278 686l162 -779h-46z" />
    <glyph glyph-name="N" unicode="N" horiz-adv-x="843" 
d="M762 754v-779l-633 673v-648h-48v764l633 -668v658h48z" />
    <glyph glyph-name="O" unicode="O" horiz-adv-x="854" 
d="M427 764c212 0 391 -175 391 -387s-179 -387 -391 -387s-391 175 -391 387s178 387 391 387zM427 719c-188 0 -343 -156 -343 -342s155 -342 343 -342c187 0 343 157 343 342c0 186 -156 342 -343 342z" />
    <glyph glyph-name="P" unicode="P" horiz-adv-x="472" 
d="M129 358v-358h-48v754h133c59 0 116 -4 163 -44c46 -39 68 -96 68 -155c0 -54 -21 -114 -63 -149c-46 -40 -109 -48 -168 -48h-85zM129 403h87c49 0 93 6 132 41c33 30 49 69 49 113c0 47 -19 94 -57 122c-38 29 -86 30 -132 30h-79v-306z" />
    <glyph glyph-name="Q" unicode="Q" horiz-adv-x="854" 
d="M520 309l153 -166c60 65 97 138 97 228c0 189 -149 348 -342 348c-187 0 -344 -156 -344 -342c0 -189 156 -342 346 -342c76 0 151 32 210 79l-188 195h68zM742 0l-68 80c-68 -56 -159 -90 -247 -90c-215 0 -391 172 -391 387c0 214 178 387 392 387
c211 0 390 -173 390 -384c0 -106 -40 -193 -110 -273l99 -107h-65z" />
    <glyph glyph-name="R" unicode="R" horiz-adv-x="488" 
d="M207 357l247 -357h-55l-246 357h-24v-357h-48v754h94c61 0 121 -1 172 -38c54 -38 76 -98 76 -162c0 -131 -91 -199 -216 -197zM129 402h61c47 0 94 2 132 35c36 29 53 74 53 119c0 56 -26 112 -80 136c-40 19 -91 17 -135 17h-31v-307z" />
    <glyph glyph-name="S" unicode="S" horiz-adv-x="544" 
d="M464 658l-34 -28c-34 54 -82 89 -153 89c-81 0 -142 -65 -142 -144s75 -112 136 -141l144 -75c57 -36 86 -82 86 -150c0 -125 -114 -219 -236 -219c-105 0 -187 65 -222 162l42 19c32 -80 91 -136 182 -136c99 0 186 78 186 178c0 85 -87 121 -152 153l-136 72
c-50 31 -78 75 -78 135c0 112 80 191 193 191c76 0 148 -41 184 -106z" />
    <glyph glyph-name="T" unicode="T" horiz-adv-x="450" 
d="M249 709v-709h-48v709h-195v45h438v-45h-195z" />
    <glyph glyph-name="U" unicode="U" horiz-adv-x="660" 
d="M538 298v456h48v-470c0 -77 0 -143 -51 -206c-51 -58 -129 -88 -205 -88s-154 30 -205 88c-51 63 -51 129 -51 206v470h48v-456c0 -68 0 -140 39 -190c37 -48 111 -73 169 -73s132 25 169 73c39 50 39 122 39 190z" />
    <glyph glyph-name="V" unicode="V" horiz-adv-x="555" 
d="M53 754l224 -644h2l223 644h48l-274 -779l-271 779h48z" />
    <glyph glyph-name="W" unicode="W" horiz-adv-x="1105" 
d="M60 754l212 -648l282 686l282 -686l209 648h48l-254 -779l-288 697l-287 -697l-252 779h48z" />
    <glyph glyph-name="X" unicode="X" horiz-adv-x="494" 
d="M218 385l-198 369h53l173 -324l173 324h53l-197 -369l207 -385h-52l-184 341l-182 -341h-52z" />
    <glyph glyph-name="Y" unicode="Y" horiz-adv-x="559" 
d="M255 322l-251 432h53l222 -382l222 382h53l-251 -432v-322h-48v322z" />
    <glyph glyph-name="Z" unicode="Z" horiz-adv-x="568" 
d="M96 45h447v-45h-531l460 709h-416v45h500z" />
    <glyph glyph-name="bracketleft" unicode="[" horiz-adv-x="300" 
d="M113 703v-855h122v-51h-170v957h170v-51h-122z" />
    <glyph glyph-name="backslash" unicode="\" horiz-adv-x="640" 
d="M35 807l35 18l535 -806l-37 -19z" />
    <glyph glyph-name="bracketright" unicode="]" horiz-adv-x="300" 
d="M187 -152v855h-122v51h170v-957h-170v51h122z" />
    <glyph glyph-name="asciicircum" unicode="^" 
d="M101 301h-47l230 453h52l230 -453h-46l-210 408z" />
    <glyph glyph-name="underscore" unicode="_" horiz-adv-x="500" 
d="M500 -125h-500v50h500v-50z" />
    <glyph glyph-name="quoteleft" unicode="&#x2018;" horiz-adv-x="259" 
d="M118 524l-45 13l83 227l30 -11z" />
    <glyph glyph-name="a" unicode="a" horiz-adv-x="560" 
d="M256 430c-106 0 -179 -96 -179 -196c0 -106 70 -202 182 -202c118 0 182 96 182 207c0 107 -73 191 -185 191zM483 462v-462h-45v83h-2c-34 -59 -108 -93 -176 -93c-140 0 -228 109 -228 244s87 238 226 238c71 0 139 -32 178 -90h2v80h45z" />
    <glyph glyph-name="b" unicode="b" horiz-adv-x="560" 
d="M301 32c113 0 182 96 182 202c0 101 -73 196 -180 196c-117 0 -184 -87 -184 -197c0 -108 68 -201 182 -201zM77 0v825h45v-443h2c39 58 107 90 178 90c138 0 226 -103 226 -238s-88 -244 -228 -244c-68 0 -142 34 -176 93h-2v-83h-45z" />
    <glyph glyph-name="c" unicode="c" horiz-adv-x="477" 
d="M431 415v-60c-44 48 -97 75 -163 75c-109 0 -191 -93 -191 -198s81 -200 190 -200c66 0 128 32 170 83v-61c-47 -41 -106 -64 -168 -64c-137 0 -237 107 -237 242c0 134 102 240 238 240c60 0 115 -18 161 -57z" />
    <glyph glyph-name="d" unicode="d" horiz-adv-x="560" 
d="M259 32c118 0 182 96 182 207c0 107 -73 191 -185 191c-106 0 -179 -96 -179 -196c0 -106 70 -202 182 -202zM438 0v83h-2c-34 -59 -108 -93 -176 -93c-140 0 -228 109 -228 244s87 238 226 238c71 0 139 -32 178 -90h2v443h45v-825h-45z" />
    <glyph glyph-name="e" unicode="e" horiz-adv-x="510" 
d="M478 227h-401c-3 -117 78 -195 185 -195c72 0 130 43 163 105l38 -22c-42 -80 -116 -125 -207 -125c-137 0 -224 111 -224 242c0 129 89 240 224 240c140 0 223 -112 222 -245zM77 269h356c-11 85 -81 161 -176 161c-94 0 -172 -74 -180 -161z" />
    <glyph glyph-name="f" unicode="f" horiz-adv-x="240" 
d="M122 420v-420h-45v420h-51v42h51v207c0 34 1 83 18 113c21 37 61 56 103 56c14 0 27 -2 40 -7v-41c-12 2 -24 6 -37 6c-78 0 -79 -78 -79 -136v-198h116v-42h-116z" />
    <glyph glyph-name="g" unicode="g" horiz-adv-x="567" 
d="M263 430c-106 0 -179 -96 -179 -196c0 -106 70 -202 182 -202c118 0 182 96 182 207c0 107 -73 191 -185 191zM490 462v-440c0 -71 -2 -135 -46 -196c-43 -59 -111 -89 -184 -89c-121 0 -221 71 -228 198h45c5 -96 86 -156 179 -156c58 0 114 20 148 69
c36 53 41 113 41 175v57h-2c-41 -55 -110 -90 -180 -90c-134 0 -224 113 -224 242c0 133 95 240 230 240c75 0 131 -32 174 -90h2v80h45z" />
    <glyph glyph-name="h" unicode="h" horiz-adv-x="490" 
d="M77 825h45v-435h2c27 51 77 82 137 82c119 0 152 -74 152 -193v-279h-45v279c0 83 -10 151 -111 151c-116 0 -135 -108 -135 -202v-228h-45v825z" />
    <glyph glyph-name="i" unicode="i" horiz-adv-x="234" 
d="M139 462v-462h-45v462h45zM117 657c23 0 41 -19 41 -41c0 -23 -18 -41 -41 -41s-41 18 -41 41c0 22 18 41 41 41z" />
    <glyph glyph-name="j" unicode="j" horiz-adv-x="234" 
d="M139 462v-732h-45v732h45zM117 657c23 0 41 -19 41 -41c0 -23 -18 -41 -41 -41s-41 18 -41 41c0 22 18 41 41 41z" />
    <glyph glyph-name="k" unicode="k" horiz-adv-x="427" 
d="M122 825v-559l190 196h58l-194 -200l259 -262h-59l-229 231l-25 -26v-205h-45v825h45z" />
    <glyph glyph-name="l" unicode="l" horiz-adv-x="199" 
d="M122 825v-825h-45v825h45z" />
    <glyph glyph-name="m" unicode="m" horiz-adv-x="725" 
d="M122 462v-58h2c21 43 67 68 116 68c59 0 106 -30 130 -84c25 55 76 84 135 84c119 0 143 -81 143 -182v-290h-45v296c0 71 -11 134 -99 134c-96 0 -119 -84 -119 -164v-266h-45v285c0 72 -13 145 -103 145c-97 0 -115 -101 -115 -176v-254h-45v462h45z" />
    <glyph glyph-name="n" unicode="n" horiz-adv-x="490" 
d="M122 462v-72h2c27 51 77 82 137 82c119 0 152 -74 152 -193v-279h-45v279c0 83 -10 151 -111 151c-116 0 -135 -108 -135 -202v-228h-45v462h45z" />
    <glyph glyph-name="o" unicode="o" horiz-adv-x="547" 
d="M272 472c136 0 243 -104 243 -241s-107 -241 -243 -241c-133 0 -240 109 -240 240c0 133 106 242 240 242zM269 430c-110 0 -192 -93 -192 -200c0 -105 83 -198 192 -198c113 0 201 86 201 198c0 114 -87 200 -201 200z" />
    <glyph glyph-name="p" unicode="p" horiz-adv-x="560" 
d="M301 430c-118 0 -182 -98 -182 -209c0 -108 73 -189 184 -189c108 0 180 91 180 194c0 106 -69 204 -182 204zM122 462v-83h2c34 59 108 93 176 93c141 0 228 -110 228 -245s-87 -237 -226 -237c-71 0 -140 31 -178 90h-2v-350h-45v732h45z" />
    <glyph glyph-name="q" unicode="q" horiz-adv-x="560" 
d="M259 430c-118 0 -182 -98 -182 -209c0 -108 73 -189 184 -189c108 0 180 91 180 194c0 106 -69 204 -182 204zM483 462v-732h-45v350h-2c-38 -59 -107 -90 -178 -90c-139 0 -226 102 -226 236c0 136 87 246 228 246c68 0 142 -34 176 -93h2v83h45z" />
    <glyph glyph-name="r" unicode="r" horiz-adv-x="278" 
d="M122 462v-60h2c18 42 51 70 100 70c18 0 33 -4 49 -11l-24 -40c-11 6 -20 9 -32 9c-101 0 -95 -126 -95 -194v-236h-45v462h45z" />
    <glyph glyph-name="s" unicode="s" horiz-adv-x="375" 
d="M310 398l-39 -20c-15 32 -45 52 -81 52c-39 0 -79 -32 -79 -72c0 -111 225 -57 225 -224c0 -85 -66 -144 -149 -144c-77 0 -140 47 -159 122l44 14c17 -55 54 -94 115 -94c58 0 104 46 104 104c0 57 -44 75 -90 91c-63 23 -135 50 -135 128c0 70 59 117 126 117
c47 0 98 -31 118 -74z" />
    <glyph glyph-name="t" unicode="t" horiz-adv-x="209" 
d="M127 420v-420h-45v420h-51v42h51v165h45v-165h81v-42h-81z" />
    <glyph glyph-name="u" unicode="u" horiz-adv-x="472" 
d="M357 462h45v-277c0 -47 1 -94 -28 -133c-32 -42 -86 -62 -138 -62s-106 20 -138 62c-29 39 -28 86 -28 133v277h45v-261c0 -89 10 -169 121 -169s121 80 121 169v261z" />
    <glyph glyph-name="v" unicode="v" horiz-adv-x="433" 
d="M51 462l167 -381l164 381h46l-211 -487l-212 487h46z" />
    <glyph glyph-name="w" unicode="w" horiz-adv-x="752" 
d="M51 462l163 -379l163 404l164 -404l160 379h46l-209 -487l-163 399l-162 -399l-208 487h46z" />
    <glyph glyph-name="x" unicode="x" horiz-adv-x="443" 
d="M192 244l-172 218h54l147 -187l148 187h54l-172 -218l188 -244h-53l-165 212l-164 -212h-53z" />
    <glyph glyph-name="y" unicode="y" horiz-adv-x="460" 
d="M215 -8l-222 470h47l197 -418l177 418h46l-310 -732h-46z" />
    <glyph glyph-name="z" unicode="z" horiz-adv-x="480" 
d="M98 42h375v-42h-470l378 420h-317v42h411z" />
    <glyph glyph-name="braceleft" unicode="{" horiz-adv-x="300" 
d="M41 255v44c46 32 73 57 73 115v176c0 115 31 161 145 164v-46c-44 0 -97 -9 -97 -80v-186c0 -101 -25 -131 -73 -163v-5c48 -31 73 -64 73 -168v-185c0 -71 53 -80 97 -80v-44c-114 4 -145 49 -145 163v176c0 58 -27 86 -73 119z" />
    <glyph glyph-name="bar" unicode="|" horiz-adv-x="320" 
d="M136 -214v1000h48v-1000h-48z" />
    <glyph glyph-name="braceright" unicode="}" horiz-adv-x="300" 
d="M259 299v-44c-46 -33 -73 -61 -73 -119v-176c0 -114 -31 -159 -145 -163v44c44 0 97 9 97 80v185c0 104 25 137 73 168v5c-48 32 -73 62 -73 163v186c0 71 -53 80 -97 80v46c114 -3 145 -49 145 -164v-176c0 -58 27 -83 73 -115z" />
    <glyph glyph-name="asciitilde" unicode="~" 
d="M201 314c36 0 78 -18 117 -36c40 -18 77 -40 103 -40c45 0 73 36 97 80l48 -23c-34 -54 -79 -109 -146 -109c-36 0 -73 19 -109 38c-37 19 -74 38 -110 38c-45 0 -73 -34 -100 -74l-47 23c35 43 76 103 147 103z" />
    <glyph glyph-name="exclamdown" unicode="&#xa1;" horiz-adv-x="320" 
d="M160 472c23 0 41 -18 41 -41s-18 -41 -41 -41s-41 18 -41 41s18 41 41 41zM184 321v-611h-48v611h48z" />
    <glyph glyph-name="cent" unicode="&#xa2;" 
d="M506 568v-60c-38 42 -89 72 -145 76v-399c59 5 114 38 149 83h2v-61c-42 -36 -95 -61 -151 -64v-128h-45v129c-119 12 -209 115 -209 235c0 125 82 233 209 246v117h45v-116c53 -2 105 -24 145 -58zM316 186v396c-96 -13 -164 -102 -164 -198c0 -95 68 -185 164 -198z
" />
    <glyph glyph-name="sterling" unicode="&#xa3;" 
d="M91 -10l-27 39c32 37 85 66 134 65c34 29 64 71 64 119l-3 29h-124v45h112l-81 138c-32 50 -54 90 -54 150c0 110 95 189 201 189c111 0 195 -91 192 -199h-48c1 88 -60 154 -150 154c-81 0 -147 -70 -147 -149c0 -43 23 -81 46 -117c33 -54 69 -107 93 -166h136v-45
h-127l2 -33c0 -46 -24 -93 -57 -126l10 -3c36 -12 111 -45 146 -45c48 0 85 42 106 82l41 -24c-28 -51 -79 -103 -141 -103c-35 0 -75 15 -113 30s-74 29 -102 29c-44 0 -78 -28 -109 -59z" />
    <glyph glyph-name="fraction" unicode="&#x2044;" horiz-adv-x="129" 
d="M272 772l32 -18l-447 -771l-32 18z" />
    <glyph glyph-name="yen" unicode="&#xa5;" 
d="M286 322l-43 75h-161v45h134l-181 312h58l217 -377l217 377h58l-181 -312h134v-45h-160l-44 -75h204v-45h-204v-277h-48v277h-204v45h204z" />
    <glyph glyph-name="florin" unicode="&#x192;" 
d="M369 486h116l-9 -45h-115l-72 -380c-16 -85 -27 -201 -139 -201c-29 0 -54 7 -80 17l9 42c23 -9 42 -14 67 -14c24 0 46 4 59 25c17 28 25 68 31 100l79 411h-69l9 45h68l40 214c6 29 13 67 29 92c20 30 59 46 94 46c25 0 43 -5 65 -15l-9 -41c-16 7 -34 11 -52 11
c-76 0 -77 -68 -88 -126z" />
    <glyph glyph-name="section" unicode="&#xa7;" 
d="M310 155c72 0 134 59 134 132c0 72 -62 134 -134 134c-73 0 -135 -62 -135 -134c0 -73 62 -132 135 -132zM144 -11h48v-13c1 -81 32 -124 117 -124c74 0 129 42 129 117c0 86 -78 110 -146 133c-92 31 -165 70 -165 182c0 78 41 142 113 172c-65 32 -96 75 -96 150
c0 103 78 158 175 158c126 0 158 -68 167 -181h-48c-1 84 -34 136 -124 136c-71 0 -122 -46 -122 -119c0 -92 76 -109 151 -134c74 -25 149 -58 149 -182c0 -77 -46 -134 -113 -167c70 -27 107 -81 107 -155c0 -106 -80 -155 -178 -155c-121 0 -166 60 -164 172v10z" />
    <glyph glyph-name="currency" unicode="&#xa4;" 
d="M68 498l36 36l42 -42c54 39 100 58 164 58s110 -19 164 -58l42 42l36 -36l-40 -40c37 -57 53 -101 53 -158s-16 -101 -53 -158l40 -40l-36 -36l-42 42c-54 -39 -100 -58 -164 -58s-110 19 -164 58l-42 -42l-36 36l40 40c-37 57 -53 101 -53 158s16 101 53 158zM310 502
c-116 -2 -209 -87 -207 -202c2 -108 94 -202 207 -202s205 94 207 202c2 115 -91 200 -207 202z" />
    <glyph glyph-name="quotesingle" unicode="'" horiz-adv-x="222" 
d="M87 754h48l-11 -240h-27z" />
    <glyph glyph-name="quotedblleft" unicode="&#x201c;" horiz-adv-x="390" 
d="M249 524l-45 13l83 227l30 -11zM118 524l-45 13l83 227l30 -11z" />
    <glyph glyph-name="guillemotleft" unicode="&#xab;" horiz-adv-x="397" 
d="M209 320l121 -142l-29 -27l-146 169l146 169l29 -27zM89 320l121 -142l-29 -27l-146 169l146 169l29 -27z" />
    <glyph glyph-name="guilsinglleft" unicode="&#x2039;" horiz-adv-x="277" 
d="M89 320l121 -142l-29 -27l-146 169l146 169l29 -27z" />
    <glyph glyph-name="guilsinglright" unicode="&#x203a;" horiz-adv-x="277" 
d="M67 178l121 142l-121 142l29 27l146 -169l-146 -169z" />
    <glyph glyph-name="endash" unicode="&#x2013;" horiz-adv-x="500" 
d="M0 342h500v-45h-500v45z" />
    <glyph glyph-name="dagger" unicode="&#x2020;" 
d="M286 754h48v-199h181v-45h-181v-688h-48v688h-181v45h181v199z" />
    <glyph glyph-name="daggerdbl" unicode="&#x2021;" 
d="M286 754h48v-199h181v-45h-181v-428h181v-45h-181v-215h-48v215h-181v45h181v428h-181v45h181v199z" />
    <glyph glyph-name="periodcentered" unicode="&#xb7;" horiz-adv-x="310" 
d="M155 297c23 0 41 -18 41 -41s-18 -41 -41 -41s-41 18 -41 41s18 41 41 41z" />
    <glyph glyph-name="paragraph" unicode="&#xb6;" 
d="M282 -178v548c-102 -1 -172 87 -172 190c0 124 63 194 203 194h197v-45h-40v-887h-48v887h-92v-887h-48z" />
    <glyph glyph-name="bullet" unicode="&#x2022;" 
d="M311 566c108 0 188 -85 188 -189c0 -103 -80 -188 -188 -188s-189 85 -189 188c0 104 81 189 189 189z" />
    <glyph glyph-name="quotesinglbase" unicode="&#x201a;" horiz-adv-x="259" 
d="M141 74l45 -14l-83 -226l-30 11z" />
    <glyph glyph-name="quotedblbase" unicode="&#x201e;" horiz-adv-x="390" 
d="M141 74l45 -14l-83 -226l-30 11zM272 74l45 -14l-83 -226l-30 11z" />
    <glyph glyph-name="quotedblright" unicode="&#x201d;" horiz-adv-x="390" 
d="M141 764l45 -13l-83 -227l-30 11zM272 764l45 -13l-83 -227l-30 11z" />
    <glyph glyph-name="guillemotright" unicode="&#xbb;" horiz-adv-x="397" 
d="M67 178l121 142l-121 142l29 27l146 -169l-146 -169zM187 178l121 142l-121 142l29 27l146 -169l-146 -169z" />
    <glyph glyph-name="ellipsis" unicode="&#x2026;" horiz-adv-x="1000" 
d="M167 75c23 0 41 -18 41 -41s-18 -41 -41 -41s-41 18 -41 41s18 41 41 41zM500 75c23 0 41 -18 41 -41s-18 -41 -41 -41s-41 18 -41 41s18 41 41 41zM833 75c23 0 41 -18 41 -41s-18 -41 -41 -41s-41 18 -41 41s18 41 41 41z" />
    <glyph glyph-name="perthousand" unicode="&#x2030;" horiz-adv-x="1034" 
d="M854 289c85 0 152 -62 152 -149c0 -85 -68 -147 -152 -147s-152 62 -152 147c0 87 67 149 152 149zM854 247c-59 0 -110 -47 -110 -107c0 -58 51 -105 110 -105s110 47 110 105c0 60 -51 107 -110 107zM180 761c85 0 152 -62 152 -149c0 -85 -68 -147 -152 -147
s-152 62 -152 147c0 87 67 149 152 149zM180 719c-59 0 -110 -47 -110 -107c0 -58 51 -105 110 -105s110 47 110 105c0 60 -51 107 -110 107zM484 289c85 0 152 -62 152 -149c0 -85 -68 -147 -152 -147s-152 62 -152 147c0 87 67 149 152 149zM484 247
c-59 0 -110 -47 -110 -107c0 -58 51 -105 110 -105s110 47 110 105c0 60 -51 107 -110 107zM538 771l33 -17l-448 -771l-31 18z" />
    <glyph glyph-name="questiondown" unicode="&#xbf;" horiz-adv-x="491" 
d="M137 159h-48c-4 91 60 161 156 161c87 0 158 -63 158 -149c0 -92 -61 -132 -143 -153c-83 -22 -146 -39 -146 -138c0 -75 54 -137 133 -137c75 0 131 55 130 127c0 18 -1 36 -5 53h46c4 -21 7 -42 7 -64c0 -96 -85 -161 -179 -161c-108 0 -180 75 -180 180
c0 113 66 154 166 179c63 16 123 32 123 111c0 62 -47 107 -112 107c-68 0 -107 -56 -106 -116zM248 472c23 0 41 -18 41 -41s-18 -41 -41 -41s-41 18 -41 41s18 41 41 41z" />
    <glyph glyph-name="grave" unicode="`" horiz-adv-x="313" 
d="M75 695l61 19l101 -147l-38 -17z" />
    <glyph glyph-name="acute" unicode="&#xb4;" horiz-adv-x="313" 
d="M176 714l61 -19l-124 -145l-38 17z" />
    <glyph glyph-name="circumflex" unicode="&#x2c6;" horiz-adv-x="426" 
d="M75 588l138 106l138 -106l-38 -29l-100 77l-102 -77z" />
    <glyph glyph-name="tilde" unicode="&#x2dc;" horiz-adv-x="439" 
d="M105 586l-30 22c13 32 41 64 78 64c24 0 48 -10 70 -19c23 -9 44 -20 63 -20c24 0 41 20 48 41l29 -22c-9 -36 -44 -65 -81 -65c-17 0 -41 10 -65 20c-23 10 -48 20 -68 20c-25 0 -37 -20 -44 -41z" />
    <glyph glyph-name="macron" unicode="&#xaf;" horiz-adv-x="456" 
d="M75 674h305v-45h-305v45z" />
    <glyph glyph-name="breve" unicode="&#x2d8;" horiz-adv-x="434" 
d="M75 674h44c14 -44 54 -61 98 -61s84 17 98 61h43c-8 -70 -75 -106 -141 -106s-133 36 -142 106z" />
    <glyph glyph-name="dotaccent" unicode="&#x2d9;" horiz-adv-x="313" 
d="M157 674c22 0 40 -18 40 -40s-18 -40 -40 -40s-40 18 -40 40s18 40 40 40z" />
    <glyph glyph-name="dieresis" unicode="&#xa8;" horiz-adv-x="421" 
d="M117 674c22 0 40 -18 40 -40s-18 -40 -40 -40s-40 18 -40 40s18 40 40 40zM304 674c22 0 40 -18 40 -40s-18 -40 -40 -40s-40 18 -40 40s18 40 40 40z" />
    <glyph glyph-name="ring" unicode="&#x2da;" horiz-adv-x="324" 
d="M162 714c48 0 87 -39 87 -87s-39 -87 -87 -87s-87 39 -87 87s39 87 87 87zM162 674c-26 0 -47 -21 -47 -47s21 -47 47 -47s47 21 47 47s-21 47 -47 47z" />
    <glyph glyph-name="cedilla" unicode="&#xb8;" horiz-adv-x="299" 
d="M224 -42l-111 -141l-38 19l93 144z" />
    <glyph glyph-name="hungarumlaut" unicode="&#x2dd;" horiz-adv-x="446" 
d="M177 714l61 -19l-124 -145l-38 17zM310 714l61 -19l-124 -145l-38 17z" />
    <glyph glyph-name="ogonek" unicode="&#x2db;" horiz-adv-x="321" 
d="M153 2h43v-2c-30 -22 -77 -64 -77 -105c0 -40 31 -59 68 -59c20 0 39 6 58 12l-10 -44c-17 -5 -34 -9 -52 -9c-55 0 -108 37 -108 96c0 48 40 87 78 111z" />
    <glyph glyph-name="caron" unicode="&#x2c7;" horiz-adv-x="426" 
d="M351 666l-138 -107l-138 107l38 28l100 -76l102 76z" />
    <glyph glyph-name="emdash" unicode="&#x2014;" horiz-adv-x="1000" 
d="M130 342h740v-45h-740v45z" />
    <glyph glyph-name="AE" unicode="&#xc6;" horiz-adv-x="942" 
d="M480 248h-323l-98 -248h-54l304 754h329l17 -45h-311l112 -274h303l19 -45h-303l140 -345h312l18 -45h-365zM461 293l-144 355l-141 -355h285z" />
    <glyph glyph-name="ordfeminine" unicode="&#xaa;" horiz-adv-x="336" 
d="M163 730c-63 0 -107 -54 -107 -110c0 -58 42 -111 109 -111c73 0 116 53 116 114c0 59 -49 107 -118 107zM315 758v-277h-29v50h-2c-22 -36 -70 -56 -114 -56c-91 0 -148 65 -148 146s56 143 147 143c46 0 90 -19 115 -54h2v48h29z" />
    <glyph glyph-name="Lslash" unicode="&#x141;" horiz-adv-x="327" 
d="M81 0v354l-81 -57v49l81 57v351h48v-318l128 89v-49l-128 -89v-342h192v-45h-240z" />
    <glyph glyph-name="Oslash" unicode="&#xd8;" horiz-adv-x="854" 
d="M171 151l481 481c-60 54 -139 87 -225 87c-188 0 -343 -156 -343 -342c0 -86 33 -166 87 -226zM680 605l-481 -482c61 -54 141 -88 228 -88c187 0 343 157 343 342c0 87 -34 168 -90 228zM49 29l90 90c-64 69 -103 160 -103 258c0 212 178 387 391 387
c98 0 189 -38 258 -99l91 91l29 -26l-92 -92c65 -69 105 -161 105 -261c0 -212 -179 -387 -391 -387c-100 0 -192 38 -260 101l-91 -91z" />
    <glyph glyph-name="OE" unicode="&#x152;" horiz-adv-x="1193" 
d="M767 0v194h-2c-61 -127 -199 -204 -339 -204c-99 0 -198 41 -270 109c-77 73 -120 172 -120 278c0 215 180 387 394 387c139 0 274 -81 335 -206h2v196h360v-45h-312v-274h305v-45h-305v-345h312v-45h-360zM429 719c-185 0 -345 -156 -345 -342c0 -92 38 -181 105 -244
c62 -61 150 -98 238 -98c92 0 182 40 246 106c61 64 93 147 93 236c0 185 -150 342 -337 342z" />
    <glyph glyph-name="ordmasculine" unicode="&#xba;" horiz-adv-x="328" 
d="M163 764c88 0 158 -62 158 -144c0 -83 -70 -145 -158 -145c-86 0 -156 65 -156 144c0 80 69 145 156 145zM161 730c-65 0 -115 -53 -115 -112c0 -57 50 -109 115 -109c67 0 121 48 121 109c0 63 -53 112 -121 112z" />
    <glyph glyph-name="ae" unicode="&#xe6;" horiz-adv-x="849" 
d="M416 268h356c-11 85 -86 162 -176 162c-94 0 -172 -75 -180 -162zM222 237c-65 0 -156 -22 -156 -102c0 -82 84 -103 151 -103c61 0 154 28 154 103c0 78 -84 102 -149 102zM763 136l39 -26c-46 -72 -119 -120 -206 -120c-78 0 -157 42 -189 114h-2
c-21 -82 -114 -114 -192 -114c-86 0 -192 43 -192 144c0 105 113 145 201 145c55 0 105 -11 149 -49c1 107 -43 200 -164 200c-54 0 -106 -19 -155 -42v46c51 26 106 38 164 38c86 0 152 -47 181 -128c33 77 113 128 196 128c140 0 223 -115 224 -246h-401
c3 -104 73 -194 182 -194c71 0 131 44 165 104z" />
    <glyph glyph-name="dotlessi" unicode="&#x131;" horiz-adv-x="234" 
d="M139 462v-462h-45v462h45z" />
    <glyph glyph-name="lslash" unicode="&#x142;" horiz-adv-x="229" 
d="M92 0v391l-75 -54v45l75 54v389h45v-357l75 53v-45l-75 -53v-423h-45z" />
    <glyph glyph-name="oslash" unicode="&#xf8;" horiz-adv-x="547" 
d="M119 108l278 278c-35 28 -79 44 -128 44c-110 0 -192 -93 -192 -200c0 -45 16 -89 42 -122zM425 357l-280 -277c33 -30 76 -48 124 -48c113 0 201 86 201 198c0 50 -17 94 -45 127zM28 17l60 60c-36 42 -56 95 -56 153c0 133 106 242 240 242c60 0 114 -20 156 -55l63 63
l28 -29l-62 -62c36 -40 58 -96 58 -158c0 -137 -107 -241 -243 -241c-61 0 -116 23 -157 60l-60 -60z" />
    <glyph glyph-name="oe" unicode="&#x153;" horiz-adv-x="945" 
d="M913 227h-399c-6 -107 76 -195 182 -195c76 0 131 40 163 107l38 -23c-40 -81 -115 -126 -205 -126c-88 0 -169 54 -201 136c-39 -82 -125 -136 -216 -136c-135 0 -243 105 -243 240c0 137 110 242 245 242c90 0 177 -52 214 -134c32 85 110 134 200 134
c143 0 223 -110 222 -245zM514 269h354c-11 85 -81 161 -176 161c-94 0 -170 -74 -178 -161zM276 430c-115 0 -199 -90 -199 -203c0 -104 88 -195 194 -195c110 0 198 88 198 198c0 107 -84 200 -193 200z" />
    <glyph glyph-name="germandbls" unicode="&#xdf;" horiz-adv-x="534" 
d="M77 0v420h-49v42h49v188c0 46 4 95 34 131c31 39 84 57 133 57c93 0 159 -70 159 -162c0 -60 -32 -115 -88 -136v-2c113 -31 187 -145 187 -260c0 -152 -124 -270 -271 -284v42c123 18 226 114 226 242c0 133 -97 223 -226 236v42c75 1 127 49 127 125
c0 69 -53 115 -121 115c-36 0 -77 -15 -96 -48c-18 -31 -19 -78 -19 -114v-634h-45z" />
    <glyph glyph-name="onesuperior" unicode="&#xb9;" horiz-adv-x="372" 
d="M210 720h-76l15 34h95v-448h-34v414z" />
    <glyph glyph-name="logicalnot" unicode="&#xac;" 
d="M518 99v218h-464v48h512v-266h-48z" />
    <glyph glyph-name="mu" unicode="&#xb5;" horiz-adv-x="472" 
d="M115 -270h-45v732h45v-228c0 -84 19 -202 121 -202c111 0 121 80 121 169v261h45v-277c0 -47 1 -94 -28 -133c-32 -42 -86 -62 -138 -62c-41 0 -100 28 -119 82h-2v-342z" />
    <glyph glyph-name="trademark" unicode="&#x2122;" horiz-adv-x="940" 
d="M378 754v-42h-139v-379h-42v379h-139v42h320zM461 754h72l137 -327h2l139 327h72v-421h-42v379h-4l-165 -379h-2l-163 379h-4v-379h-42v421z" />
    <glyph glyph-name="Eth" unicode="&#xd0;" horiz-adv-x="652" 
d="M129 709v-275h173v-45h-173v-344h87c99 0 181 20 253 91c64 64 100 150 100 240c0 96 -38 186 -109 251c-72 65 -150 82 -244 82h-87zM81 0v389h-81v45h81v320h136c110 0 197 -18 280 -95c79 -74 120 -175 120 -283c0 -104 -40 -203 -116 -276
c-83 -80 -172 -100 -284 -100h-136z" />
    <glyph glyph-name="onehalf" unicode="&#xbd;" horiz-adv-x="930" 
d="M176 720h-76l15 34h95v-448h-34v414zM606 34h222v-34h-302l182 185c37 38 88 90 88 143c0 58 -50 96 -113 96c-67 0 -113 -38 -113 -99h-34c1 32 7 60 31 85c28 30 74 48 116 48c81 0 147 -57 147 -132c0 -61 -48 -114 -88 -154zM605 772l32 -18l-447 -771l-32 18z" />
    <glyph glyph-name="plusminus" unicode="&#xb1;" 
d="M286 320v192h48v-192h232v-48h-232v-192h-48v192h-232v48h232zM54 0v48h512v-48h-512z" />
    <glyph glyph-name="Thorn" unicode="&#xde;" horiz-adv-x="472" 
d="M81 0v754h48v-160h85c59 0 116 -4 163 -44c46 -39 68 -96 68 -155c0 -54 -21 -114 -63 -149c-46 -40 -109 -48 -168 -48h-85v-198h-48zM129 243h87c49 0 93 6 132 41c33 30 49 69 49 113c0 47 -19 94 -57 122c-38 29 -86 30 -132 30h-79v-306z" />
    <glyph glyph-name="onequarter" unicode="&#xbc;" horiz-adv-x="930" 
d="M176 720h-76l15 34h95v-448h-34v414zM649 772l32 -18l-447 -771l-32 18zM764 116h66v-34h-66v-82h-34v82h-259v4l287 382h6v-352zM730 116v251h-5l-186 -247v-4h191z" />
    <glyph glyph-name="divide" unicode="&#xf7;" 
d="M54 232v48h512v-48h-512zM310 82c23 0 41 -18 41 -41s-18 -41 -41 -41s-41 18 -41 41s18 41 41 41zM310 512c23 0 41 -18 41 -41s-18 -41 -41 -41s-41 18 -41 41s18 41 41 41z" />
    <glyph glyph-name="brokenbar" unicode="&#xa6;" horiz-adv-x="320" 
d="M136 -89v250h48v-250h-48zM136 411v250h48v-250h-48z" />
    <glyph glyph-name="degree" unicode="&#xb0;" horiz-adv-x="400" 
d="M350 614c0 -83 -68 -150 -150 -150c-83 0 -150 67 -150 150c-1 82 67 150 150 150c82 0 150 -68 150 -150zM199 722c-60 0 -107 -48 -107 -108c0 -61 47 -108 108 -108c60 0 108 47 108 108c0 60 -48 108 -109 108z" />
    <glyph glyph-name="thorn" unicode="&#xfe;" horiz-adv-x="560" 
d="M301 430c-118 0 -182 -98 -182 -209c0 -108 73 -189 184 -189c108 0 180 91 180 194c0 106 -69 204 -182 204zM122 80v-350h-45v1095h45v-446h2c34 59 108 93 176 93c141 0 228 -110 228 -245s-87 -237 -226 -237c-71 0 -140 31 -178 90h-2z" />
    <glyph glyph-name="threequarters" unicode="&#xbe;" horiz-adv-x="930" 
d="M804 116h66v-34h-66v-82h-34v82h-259v4l287 382h6v-352zM770 116v251h-5l-186 -247v-4h191zM197 525v34c58 0 102 35 102 90c0 49 -42 81 -95 81c-56 0 -89 -27 -92 -78h-34c6 68 51 112 127 112c70 0 128 -51 128 -116c0 -46 -28 -86 -74 -105c49 -17 81 -62 81 -110
c0 -75 -62 -133 -144 -133c-73 0 -136 47 -136 117h34c6 -52 42 -83 101 -83c62 0 111 41 111 97c0 59 -48 94 -109 94zM702 772l32 -18l-447 -771l-32 18z" />
    <glyph glyph-name="twosuperior" unicode="&#xb2;" horiz-adv-x="372" 
d="M114 340h222v-34h-302l182 185c37 38 88 90 88 143c0 58 -50 96 -113 96c-67 0 -113 -38 -113 -99h-34c1 32 7 60 31 85c28 30 74 48 116 48c81 0 147 -57 147 -132c0 -61 -48 -114 -88 -154z" />
    <glyph glyph-name="registered" unicode="&#xae;" horiz-adv-x="800" 
d="M401 -10c-214 0 -388 174 -388 388c0 213 174 386 388 386c213 0 386 -173 386 -386c0 -214 -173 -388 -386 -388zM401 38c188 0 338 150 338 340c0 188 -150 338 -338 338c-189 0 -340 -150 -340 -338c0 -190 151 -340 340 -340zM462 353l128 -195h-62l-121 195h-99
v-195h-48v423h185c112 0 150 -42 150 -112c0 -83 -58 -114 -133 -116zM308 401h83c60 0 156 -10 156 69c0 55 -62 63 -114 63h-125v-132z" />
    <glyph glyph-name="minus" unicode="&#x2212;" 
d="M54 232v48h512v-48h-512z" />
    <glyph glyph-name="eth" unicode="&#xf0;" horiz-adv-x="547" 
d="M89 798l32 30c51 -30 91 -57 139 -95l155 87l25 -33l-147 -82c131 -115 222 -269 222 -445c0 -190 -123 -270 -243 -270c-134 0 -240 110 -240 241c0 129 105 242 243 242c88 0 140 -43 169 -70c-35 100 -79 178 -191 279l-146 -82l-25 34l137 75c-41 34 -85 62 -130 89z
M269 430c-110 0 -192 -93 -192 -200c0 -105 83 -198 192 -198c113 0 201 86 201 198c0 114 -87 200 -201 200z" />
    <glyph glyph-name="multiply" unicode="&#xd7;" 
d="M279 256l-225 222l30 34l226 -226l226 226l30 -34l-224 -222l224 -224l-30 -32l-226 225l-225 -225l-31 32z" />
    <glyph glyph-name="threesuperior" unicode="&#xb3;" horiz-adv-x="372" 
d="M183 525v34c58 0 102 35 102 90c0 49 -42 81 -95 81c-56 0 -89 -27 -92 -78h-34c6 68 51 112 127 112c70 0 128 -51 128 -116c0 -46 -28 -86 -74 -105c49 -17 81 -62 81 -110c0 -75 -62 -133 -144 -133c-73 0 -136 47 -136 117h34c6 -52 42 -83 101 -83
c62 0 111 41 111 97c0 59 -48 94 -109 94z" />
    <glyph glyph-name="copyright" unicode="&#xa9;" horiz-adv-x="800" 
d="M401 -10c-214 0 -388 174 -388 388c0 213 174 386 388 386c213 0 386 -173 386 -386c0 -214 -173 -388 -386 -388zM401 38c188 0 338 150 338 340c0 188 -150 338 -338 338c-189 0 -340 -150 -340 -338c0 -190 151 -340 340 -340zM549 308h48c-9 -93 -90 -150 -179 -150
c-129 0 -214 97 -214 223c0 128 80 222 211 222c93 0 168 -53 182 -146h-48c-11 61 -71 98 -133 98c-102 0 -164 -77 -164 -173c0 -93 66 -176 166 -176c61 0 123 37 131 102z" />
    <glyph glyph-name="Aacute" unicode="&#xc1;" horiz-adv-x="641" 
d="M486 248h-331l-101 -248h-49l316 779l315 -779h-49zM468 293l-147 364l-148 -364h295zM340 971l61 -19l-124 -145l-38 17z" />
    <glyph glyph-name="Acircumflex" unicode="&#xc2;" horiz-adv-x="641" 
d="M486 248h-331l-101 -248h-49l316 779l315 -779h-49zM468 293l-147 364l-148 -364h295zM183 845l138 106l138 -106l-38 -29l-100 77l-102 -77z" />
    <glyph glyph-name="Adieresis" unicode="&#xc4;" horiz-adv-x="641" 
d="M486 248h-331l-101 -248h-49l316 779l315 -779h-49zM468 293l-147 364l-148 -364h295zM227 931c22 0 40 -18 40 -40s-18 -40 -40 -40s-40 18 -40 40s18 40 40 40zM414 931c22 0 40 -18 40 -40s-18 -40 -40 -40s-40 18 -40 40s18 40 40 40z" />
    <glyph glyph-name="Agrave" unicode="&#xc0;" horiz-adv-x="641" 
d="M486 248h-331l-101 -248h-49l316 779l315 -779h-49zM468 293l-147 364l-148 -364h295zM239 952l61 19l101 -147l-38 -17z" />
    <glyph glyph-name="Aring" unicode="&#xc5;" horiz-adv-x="641" 
d="M486 248h-331l-101 -248h-49l316 779l315 -779h-49zM468 293l-147 364l-148 -364h295zM321 971c48 0 87 -39 87 -87s-39 -87 -87 -87s-87 39 -87 87s39 87 87 87zM321 931c-26 0 -47 -21 -47 -47s21 -47 47 -47s47 21 47 47s-21 47 -47 47z" />
    <glyph glyph-name="Atilde" unicode="&#xc3;" horiz-adv-x="641" 
d="M486 248h-331l-101 -248h-49l316 779l315 -779h-49zM468 293l-147 364l-148 -364h295zM206 843l-30 22c13 32 41 64 78 64c24 0 48 -10 70 -19c23 -9 44 -20 63 -20c24 0 41 20 48 41l29 -22c-9 -36 -44 -65 -81 -65c-17 0 -41 10 -65 20c-23 10 -48 20 -68 20
c-25 0 -37 -20 -44 -41z" />
    <glyph glyph-name="Ccedilla" unicode="&#xc7;" horiz-adv-x="739" 
d="M680 666v-66c-58 71 -160 119 -253 119c-188 0 -343 -162 -343 -347c0 -88 38 -171 101 -233c63 -60 153 -104 242 -104c87 0 197 47 253 115v-66c-71 -59 -158 -94 -251 -94c-210 0 -393 175 -393 386c0 214 180 388 394 388c91 0 183 -36 250 -98zM444 -42l-111 -141
l-38 19l93 144z" />
    <glyph glyph-name="Eacute" unicode="&#xc9;" horiz-adv-x="507" 
d="M441 709h-312v-274h304v-45h-304v-345h312v-45h-360v754h360v-45zM293 971l61 -19l-124 -145l-38 17z" />
    <glyph glyph-name="Ecircumflex" unicode="&#xca;" horiz-adv-x="507" 
d="M441 709h-312v-274h304v-45h-304v-345h312v-45h-360v754h360v-45zM116 845l138 106l138 -106l-38 -29l-100 77l-102 -77z" />
    <glyph glyph-name="Edieresis" unicode="&#xcb;" horiz-adv-x="507" 
d="M441 709h-312v-274h304v-45h-304v-345h312v-45h-360v754h360v-45zM160 931c22 0 40 -18 40 -40s-18 -40 -40 -40s-40 18 -40 40s18 40 40 40zM347 931c22 0 40 -18 40 -40s-18 -40 -40 -40s-40 18 -40 40s18 40 40 40z" />
    <glyph glyph-name="Egrave" unicode="&#xc8;" horiz-adv-x="507" 
d="M441 709h-312v-274h304v-45h-304v-345h312v-45h-360v754h360v-45zM172 952l61 19l101 -147l-38 -17z" />
    <glyph glyph-name="Iacute" unicode="&#xcd;" horiz-adv-x="210" 
d="M129 754v-754h-48v754h48zM125 971l61 -19l-124 -145l-38 17z" />
    <glyph glyph-name="Icircumflex" unicode="&#xce;" horiz-adv-x="210" 
d="M129 754v-754h-48v754h48zM-33 845l138 106l138 -106l-38 -29l-100 77l-102 -77z" />
    <glyph glyph-name="Idieresis" unicode="&#xcf;" horiz-adv-x="210" 
d="M129 754v-754h-48v754h48zM12 931c22 0 40 -18 40 -40s-18 -40 -40 -40s-40 18 -40 40s18 40 40 40zM199 931c22 0 40 -18 40 -40s-18 -40 -40 -40s-40 18 -40 40s18 40 40 40z" />
    <glyph glyph-name="Igrave" unicode="&#xcc;" horiz-adv-x="210" 
d="M129 754v-754h-48v754h48zM24 952l61 19l101 -147l-38 -17z" />
    <glyph glyph-name="Ntilde" unicode="&#xd1;" horiz-adv-x="843" 
d="M762 754v-779l-633 673v-648h-48v764l633 -668v658h48zM307 843l-30 22c13 32 41 64 78 64c24 0 48 -10 70 -19c23 -9 44 -20 63 -20c24 0 41 20 48 41l29 -22c-9 -36 -44 -65 -81 -65c-17 0 -41 10 -65 20c-23 10 -48 20 -68 20c-25 0 -37 -20 -44 -41z" />
    <glyph glyph-name="Oacute" unicode="&#xd3;" horiz-adv-x="854" 
d="M427 764c212 0 391 -175 391 -387s-179 -387 -391 -387s-391 175 -391 387s178 387 391 387zM427 719c-188 0 -343 -156 -343 -342s155 -342 343 -342c187 0 343 157 343 342c0 186 -156 342 -343 342zM447 971l61 -19l-124 -145l-38 17z" />
    <glyph glyph-name="Ocircumflex" unicode="&#xd4;" horiz-adv-x="854" 
d="M427 764c212 0 391 -175 391 -387s-179 -387 -391 -387s-391 175 -391 387s178 387 391 387zM427 719c-188 0 -343 -156 -343 -342s155 -342 343 -342c187 0 343 157 343 342c0 186 -156 342 -343 342zM289 845l138 106l138 -106l-38 -29l-100 77l-102 -77z" />
    <glyph glyph-name="Odieresis" unicode="&#xd6;" horiz-adv-x="854" 
d="M427 764c212 0 391 -175 391 -387s-179 -387 -391 -387s-391 175 -391 387s178 387 391 387zM427 719c-188 0 -343 -156 -343 -342s155 -342 343 -342c187 0 343 157 343 342c0 186 -156 342 -343 342zM334 931c22 0 40 -18 40 -40s-18 -40 -40 -40s-40 18 -40 40
s18 40 40 40zM521 931c22 0 40 -18 40 -40s-18 -40 -40 -40s-40 18 -40 40s18 40 40 40z" />
    <glyph glyph-name="Ograve" unicode="&#xd2;" horiz-adv-x="854" 
d="M427 764c212 0 391 -175 391 -387s-179 -387 -391 -387s-391 175 -391 387s178 387 391 387zM427 719c-188 0 -343 -156 -343 -342s155 -342 343 -342c187 0 343 157 343 342c0 186 -156 342 -343 342zM346 952l61 19l101 -147l-38 -17z" />
    <glyph glyph-name="Otilde" unicode="&#xd5;" horiz-adv-x="854" 
d="M427 764c212 0 391 -175 391 -387s-179 -387 -391 -387s-391 175 -391 387s178 387 391 387zM427 719c-188 0 -343 -156 -343 -342s155 -342 343 -342c187 0 343 157 343 342c0 186 -156 342 -343 342zM313 843l-30 22c13 32 41 64 78 64c24 0 48 -10 70 -19
c23 -9 44 -20 63 -20c24 0 41 20 48 41l29 -22c-9 -36 -44 -65 -81 -65c-17 0 -41 10 -65 20c-23 10 -48 20 -68 20c-25 0 -37 -20 -44 -41z" />
    <glyph glyph-name="Scaron" unicode="&#x160;" horiz-adv-x="544" 
d="M464 658l-34 -28c-34 54 -82 89 -153 89c-81 0 -142 -65 -142 -144s75 -112 136 -141l144 -75c57 -36 86 -82 86 -150c0 -125 -114 -219 -236 -219c-105 0 -187 65 -222 162l42 19c32 -80 91 -136 182 -136c99 0 186 78 186 178c0 85 -87 121 -152 153l-136 72
c-50 31 -78 75 -78 135c0 112 80 191 193 191c76 0 148 -41 184 -106zM420 923l-138 -107l-138 107l38 28l100 -76l102 76z" />
    <glyph glyph-name="Uacute" unicode="&#xda;" horiz-adv-x="660" 
d="M538 298v456h48v-470c0 -77 0 -143 -51 -206c-51 -58 -129 -88 -205 -88s-154 30 -205 88c-51 63 -51 129 -51 206v470h48v-456c0 -68 0 -140 39 -190c37 -48 111 -73 169 -73s132 25 169 73c39 50 39 122 39 190zM365 971l61 -19l-124 -145l-38 17z" />
    <glyph glyph-name="Ucircumflex" unicode="&#xdb;" horiz-adv-x="660" 
d="M538 298v456h48v-470c0 -77 0 -143 -51 -206c-51 -58 -129 -88 -205 -88s-154 30 -205 88c-51 63 -51 129 -51 206v470h48v-456c0 -68 0 -140 39 -190c37 -48 111 -73 169 -73s132 25 169 73c39 50 39 122 39 190zM192 845l138 106l138 -106l-38 -29l-100 77l-102 -77z
" />
    <glyph glyph-name="Udieresis" unicode="&#xdc;" horiz-adv-x="660" 
d="M538 298v456h48v-470c0 -77 0 -143 -51 -206c-51 -58 -129 -88 -205 -88s-154 30 -205 88c-51 63 -51 129 -51 206v470h48v-456c0 -68 0 -140 39 -190c37 -48 111 -73 169 -73s132 25 169 73c39 50 39 122 39 190zM237 931c22 0 40 -18 40 -40s-18 -40 -40 -40
s-40 18 -40 40s18 40 40 40zM424 931c22 0 40 -18 40 -40s-18 -40 -40 -40s-40 18 -40 40s18 40 40 40z" />
    <glyph glyph-name="Ugrave" unicode="&#xd9;" horiz-adv-x="660" 
d="M538 298v456h48v-470c0 -77 0 -143 -51 -206c-51 -58 -129 -88 -205 -88s-154 30 -205 88c-51 63 -51 129 -51 206v470h48v-456c0 -68 0 -140 39 -190c37 -48 111 -73 169 -73s132 25 169 73c39 50 39 122 39 190zM234 952l61 19l101 -147l-38 -17z" />
    <glyph glyph-name="Yacute" unicode="&#xdd;" horiz-adv-x="559" 
d="M255 322l-251 432h53l222 -382l222 382h53l-251 -432v-322h-48v322zM329 971l61 -19l-124 -145l-38 17z" />
    <glyph glyph-name="Ydieresis" unicode="&#x178;" horiz-adv-x="559" 
d="M255 322l-251 432h53l222 -382l222 382h53l-251 -432v-322h-48v322zM198 931c22 0 40 -18 40 -40s-18 -40 -40 -40s-40 18 -40 40s18 40 40 40zM385 931c22 0 40 -18 40 -40s-18 -40 -40 -40s-40 18 -40 40s18 40 40 40z" />
    <glyph glyph-name="Zcaron" unicode="&#x17d;" horiz-adv-x="568" 
d="M96 45h447v-45h-531l460 709h-416v45h500zM434 923l-138 -107l-138 107l38 28l100 -76l102 76z" />
    <glyph glyph-name="aacute" unicode="&#xe1;" horiz-adv-x="560" 
d="M256 430c-106 0 -179 -96 -179 -196c0 -106 70 -202 182 -202c118 0 182 96 182 207c0 107 -73 191 -185 191zM483 462v-462h-45v83h-2c-34 -59 -108 -93 -176 -93c-140 0 -228 109 -228 244s87 238 226 238c71 0 139 -32 178 -90h2v80h45zM315 714l61 -19l-124 -145
l-38 17z" />
    <glyph glyph-name="acircumflex" unicode="&#xe2;" horiz-adv-x="560" 
d="M256 430c-106 0 -179 -96 -179 -196c0 -106 70 -202 182 -202c118 0 182 96 182 207c0 107 -73 191 -185 191zM483 462v-462h-45v83h-2c-34 -59 -108 -93 -176 -93c-140 0 -228 109 -228 244s87 238 226 238c71 0 139 -32 178 -90h2v80h45zM142 588l138 106l138 -106
l-38 -29l-100 77l-102 -77z" />
    <glyph glyph-name="adieresis" unicode="&#xe4;" horiz-adv-x="560" 
d="M256 430c-106 0 -179 -96 -179 -196c0 -106 70 -202 182 -202c118 0 182 96 182 207c0 107 -73 191 -185 191zM483 462v-462h-45v83h-2c-34 -59 -108 -93 -176 -93c-140 0 -228 109 -228 244s87 238 226 238c71 0 139 -32 178 -90h2v80h45zM187 674c22 0 40 -18 40 -40
s-18 -40 -40 -40s-40 18 -40 40s18 40 40 40zM374 674c22 0 40 -18 40 -40s-18 -40 -40 -40s-40 18 -40 40s18 40 40 40z" />
    <glyph glyph-name="agrave" unicode="&#xe0;" horiz-adv-x="560" 
d="M256 430c-106 0 -179 -96 -179 -196c0 -106 70 -202 182 -202c118 0 182 96 182 207c0 107 -73 191 -185 191zM483 462v-462h-45v83h-2c-34 -59 -108 -93 -176 -93c-140 0 -228 109 -228 244s87 238 226 238c71 0 139 -32 178 -90h2v80h45zM184 695l61 19l101 -147
l-38 -17z" />
    <glyph glyph-name="aring" unicode="&#xe5;" horiz-adv-x="560" 
d="M256 430c-106 0 -179 -96 -179 -196c0 -106 70 -202 182 -202c118 0 182 96 182 207c0 107 -73 191 -185 191zM483 462v-462h-45v83h-2c-34 -59 -108 -93 -176 -93c-140 0 -228 109 -228 244s87 238 226 238c71 0 139 -32 178 -90h2v80h45zM280 714c48 0 87 -39 87 -87
s-39 -87 -87 -87s-87 39 -87 87s39 87 87 87zM280 674c-26 0 -47 -21 -47 -47s21 -47 47 -47s47 21 47 47s-21 47 -47 47z" />
    <glyph glyph-name="atilde" unicode="&#xe3;" horiz-adv-x="560" 
d="M256 430c-106 0 -179 -96 -179 -196c0 -106 70 -202 182 -202c118 0 182 96 182 207c0 107 -73 191 -185 191zM483 462v-462h-45v83h-2c-34 -59 -108 -93 -176 -93c-140 0 -228 109 -228 244s87 238 226 238c71 0 139 -32 178 -90h2v80h45zM166 586l-30 22
c13 32 41 64 78 64c24 0 48 -10 70 -19c23 -9 44 -20 63 -20c24 0 41 20 48 41l29 -22c-9 -36 -44 -65 -81 -65c-17 0 -41 10 -65 20c-23 10 -48 20 -68 20c-25 0 -37 -20 -44 -41z" />
    <glyph glyph-name="ccedilla" unicode="&#xe7;" horiz-adv-x="477" 
d="M431 415v-60c-44 48 -97 75 -163 75c-109 0 -191 -93 -191 -198s81 -200 190 -200c66 0 128 32 170 83v-61c-47 -41 -106 -64 -168 -64c-137 0 -237 107 -237 242c0 134 102 240 238 240c60 0 115 -18 161 -57zM313 -42l-111 -141l-38 19l93 144z" />
    <glyph glyph-name="eacute" unicode="&#xe9;" horiz-adv-x="510" 
d="M478 227h-401c-3 -117 78 -195 185 -195c72 0 130 43 163 105l38 -22c-42 -80 -116 -125 -207 -125c-137 0 -224 111 -224 242c0 129 89 240 224 240c140 0 223 -112 222 -245zM77 269h356c-11 85 -81 161 -176 161c-94 0 -172 -74 -180 -161zM290 714l61 -19l-124 -145
l-38 17z" />
    <glyph glyph-name="ecircumflex" unicode="&#xea;" horiz-adv-x="510" 
d="M478 227h-401c-3 -117 78 -195 185 -195c72 0 130 43 163 105l38 -22c-42 -80 -116 -125 -207 -125c-137 0 -224 111 -224 242c0 129 89 240 224 240c140 0 223 -112 222 -245zM77 269h356c-11 85 -81 161 -176 161c-94 0 -172 -74 -180 -161zM117 588l138 106l138 -106
l-38 -29l-100 77l-102 -77z" />
    <glyph glyph-name="edieresis" unicode="&#xeb;" horiz-adv-x="510" 
d="M478 227h-401c-3 -117 78 -195 185 -195c72 0 130 43 163 105l38 -22c-42 -80 -116 -125 -207 -125c-137 0 -224 111 -224 242c0 129 89 240 224 240c140 0 223 -112 222 -245zM77 269h356c-11 85 -81 161 -176 161c-94 0 -172 -74 -180 -161zM162 674
c22 0 40 -18 40 -40s-18 -40 -40 -40s-40 18 -40 40s18 40 40 40zM349 674c22 0 40 -18 40 -40s-18 -40 -40 -40s-40 18 -40 40s18 40 40 40z" />
    <glyph glyph-name="egrave" unicode="&#xe8;" horiz-adv-x="510" 
d="M478 227h-401c-3 -117 78 -195 185 -195c72 0 130 43 163 105l38 -22c-42 -80 -116 -125 -207 -125c-137 0 -224 111 -224 242c0 129 89 240 224 240c140 0 223 -112 222 -245zM77 269h356c-11 85 -81 161 -176 161c-94 0 -172 -74 -180 -161zM159 695l61 19l101 -147
l-38 -17z" />
    <glyph glyph-name="iacute" unicode="&#xed;" horiz-adv-x="234" 
d="M139 462v-462h-45v462h45zM151 714l61 -19l-124 -145l-38 17z" />
    <glyph glyph-name="icircumflex" unicode="&#xee;" horiz-adv-x="234" 
d="M139 462v-462h-45v462h45zM-21 588l138 106l138 -106l-38 -29l-100 77l-102 -77z" />
    <glyph glyph-name="idieresis" unicode="&#xef;" horiz-adv-x="234" 
d="M139 462v-462h-45v462h45zM24 674c22 0 40 -18 40 -40s-18 -40 -40 -40s-40 18 -40 40s18 40 40 40zM211 674c22 0 40 -18 40 -40s-18 -40 -40 -40s-40 18 -40 40s18 40 40 40z" />
    <glyph glyph-name="igrave" unicode="&#xec;" horiz-adv-x="234" 
d="M139 462v-462h-45v462h45zM20 695l61 19l101 -147l-38 -17z" />
    <glyph glyph-name="ntilde" unicode="&#xf1;" horiz-adv-x="490" 
d="M122 462v-72h2c27 51 77 82 137 82c119 0 152 -74 152 -193v-279h-45v279c0 83 -10 151 -111 151c-116 0 -135 -108 -135 -202v-228h-45v462h45zM131 586l-30 22c13 32 41 64 78 64c24 0 48 -10 70 -19c23 -9 44 -20 63 -20c24 0 41 20 48 41l29 -22
c-9 -36 -44 -65 -81 -65c-17 0 -41 10 -65 20c-23 10 -48 20 -68 20c-25 0 -37 -20 -44 -41z" />
    <glyph glyph-name="oacute" unicode="&#xf3;" horiz-adv-x="547" 
d="M272 472c136 0 243 -104 243 -241s-107 -241 -243 -241c-133 0 -240 109 -240 240c0 133 106 242 240 242zM269 430c-110 0 -192 -93 -192 -200c0 -105 83 -198 192 -198c113 0 201 86 201 198c0 114 -87 200 -201 200zM308 714l61 -19l-124 -145l-38 17z" />
    <glyph glyph-name="ocircumflex" unicode="&#xf4;" horiz-adv-x="547" 
d="M272 472c136 0 243 -104 243 -241s-107 -241 -243 -241c-133 0 -240 109 -240 240c0 133 106 242 240 242zM269 430c-110 0 -192 -93 -192 -200c0 -105 83 -198 192 -198c113 0 201 86 201 198c0 114 -87 200 -201 200zM136 588l138 106l138 -106l-38 -29l-100 77
l-102 -77z" />
    <glyph glyph-name="odieresis" unicode="&#xf6;" horiz-adv-x="547" 
d="M272 472c136 0 243 -104 243 -241s-107 -241 -243 -241c-133 0 -240 109 -240 240c0 133 106 242 240 242zM269 430c-110 0 -192 -93 -192 -200c0 -105 83 -198 192 -198c113 0 201 86 201 198c0 114 -87 200 -201 200zM180 674c22 0 40 -18 40 -40s-18 -40 -40 -40
s-40 18 -40 40s18 40 40 40zM367 674c22 0 40 -18 40 -40s-18 -40 -40 -40s-40 18 -40 40s18 40 40 40z" />
    <glyph glyph-name="ograve" unicode="&#xf2;" horiz-adv-x="547" 
d="M272 472c136 0 243 -104 243 -241s-107 -241 -243 -241c-133 0 -240 109 -240 240c0 133 106 242 240 242zM269 430c-110 0 -192 -93 -192 -200c0 -105 83 -198 192 -198c113 0 201 86 201 198c0 114 -87 200 -201 200zM177 695l61 19l101 -147l-38 -17z" />
    <glyph glyph-name="otilde" unicode="&#xf5;" horiz-adv-x="547" 
d="M272 472c136 0 243 -104 243 -241s-107 -241 -243 -241c-133 0 -240 109 -240 240c0 133 106 242 240 242zM269 430c-110 0 -192 -93 -192 -200c0 -105 83 -198 192 -198c113 0 201 86 201 198c0 114 -87 200 -201 200zM159 586l-30 22c13 32 41 64 78 64
c24 0 48 -10 70 -19c23 -9 44 -20 63 -20c24 0 41 20 48 41l29 -22c-9 -36 -44 -65 -81 -65c-17 0 -41 10 -65 20c-23 10 -48 20 -68 20c-25 0 -37 -20 -44 -41z" />
    <glyph glyph-name="scaron" unicode="&#x161;" horiz-adv-x="375" 
d="M310 398l-39 -20c-15 32 -45 52 -81 52c-39 0 -79 -32 -79 -72c0 -111 225 -57 225 -224c0 -85 -66 -144 -149 -144c-77 0 -140 47 -159 122l44 14c17 -55 54 -94 115 -94c58 0 104 46 104 104c0 57 -44 75 -90 91c-63 23 -135 50 -135 128c0 70 59 117 126 117
c47 0 98 -31 118 -74zM326 666l-138 -107l-138 107l38 28l100 -76l102 76z" />
    <glyph glyph-name="uacute" unicode="&#xfa;" horiz-adv-x="472" 
d="M357 462h45v-277c0 -47 1 -94 -28 -133c-32 -42 -86 -62 -138 -62s-106 20 -138 62c-29 39 -28 86 -28 133v277h45v-261c0 -89 10 -169 121 -169s121 80 121 169v261zM281 714l61 -19l-124 -145l-38 17z" />
    <glyph glyph-name="ucircumflex" unicode="&#xfb;" horiz-adv-x="472" 
d="M357 462h45v-277c0 -47 1 -94 -28 -133c-32 -42 -86 -62 -138 -62s-106 20 -138 62c-29 39 -28 86 -28 133v277h45v-261c0 -89 10 -169 121 -169s121 80 121 169v261zM98 588l138 106l138 -106l-38 -29l-100 77l-102 -77z" />
    <glyph glyph-name="udieresis" unicode="&#xfc;" horiz-adv-x="472" 
d="M357 462h45v-277c0 -47 1 -94 -28 -133c-32 -42 -86 -62 -138 -62s-106 20 -138 62c-29 39 -28 86 -28 133v277h45v-261c0 -89 10 -169 121 -169s121 80 121 169v261zM143 674c22 0 40 -18 40 -40s-18 -40 -40 -40s-40 18 -40 40s18 40 40 40zM330 674
c22 0 40 -18 40 -40s-18 -40 -40 -40s-40 18 -40 40s18 40 40 40z" />
    <glyph glyph-name="ugrave" unicode="&#xf9;" horiz-adv-x="472" 
d="M357 462h45v-277c0 -47 1 -94 -28 -133c-32 -42 -86 -62 -138 -62s-106 20 -138 62c-29 39 -28 86 -28 133v277h45v-261c0 -89 10 -169 121 -169s121 80 121 169v261zM130 695l61 19l101 -147l-38 -17z" />
    <glyph glyph-name="yacute" unicode="&#xfd;" horiz-adv-x="460" 
d="M215 -8l-222 470h47l197 -418l177 418h46l-310 -732h-46zM280 714l61 -19l-124 -145l-38 17z" />
    <glyph glyph-name="ydieresis" unicode="&#xff;" horiz-adv-x="460" 
d="M215 -8l-222 470h47l197 -418l177 418h46l-310 -732h-46zM142 674c22 0 40 -18 40 -40s-18 -40 -40 -40s-40 18 -40 40s18 40 40 40zM329 674c22 0 40 -18 40 -40s-18 -40 -40 -40s-40 18 -40 40s18 40 40 40z" />
    <glyph glyph-name="zcaron" unicode="&#x17e;" horiz-adv-x="480" 
d="M98 42h375v-42h-470l378 420h-317v42h411zM403 666l-138 -107l-138 107l38 28l100 -76l102 76z" />
    <glyph glyph-name="Delta" unicode="&#x2206;" horiz-adv-x="717" 
d="M38 0v40l296 728h51l295 -728v-40h-642zM83 38h547l-188 469c-22 57 -67 156 -82 206h-5c-11 -40 -52 -131 -73 -187z" />
    <glyph glyph-name="Omega" unicode="&#x2126;" horiz-adv-x="815" 
d="M240 38v3c-87 70 -161 192 -161 351c0 222 150 365 332 365c191 0 325 -163 325 -362c0 -167 -82 -294 -163 -354v-3h179v-38h-252v28c96 58 191 187 191 362c-1 146 -96 330 -281 330c-174 0 -286 -152 -286 -332c0 -166 96 -303 190 -360v-28h-251v38h177z" />
    <glyph glyph-name="uni03BC" unicode="&#x3bc;" horiz-adv-x="472" 
d="M115 -270h-45v732h45v-228c0 -84 19 -202 121 -202c111 0 121 80 121 169v261h45v-277c0 -47 1 -94 -28 -133c-32 -42 -86 -62 -138 -62c-41 0 -100 28 -119 82h-2v-342z" />
    <glyph glyph-name="pi" unicode="&#x3c0;" horiz-adv-x="614" 
d="M583 512h-98v-353c0 -98 9 -133 17 -159h-44c-9 14 -18 53 -18 150v362h-235c-8 -152 -46 -417 -89 -512h-45c45 109 81 353 88 512c-81 0 -112 -6 -135 -16l-11 30c28 15 67 25 145 25h431z" />
    <glyph glyph-name="Euro" unicode="&#x20ac;" 
d="M570 703v-52c-39 38 -99 68 -181 68c-148 0 -219 -121 -233 -255h357l-15 -40h-346c-1 -12 -2 -33 -2 -47c0 -18 1 -35 2 -46h312l-14 -40h-293c19 -162 100 -258 233 -258c81 0 137 29 180 68v-52c-32 -29 -98 -58 -184 -58c-156 0 -253 98 -277 300h-74l14 40h56
c-1 11 -2 33 -2 46c0 16 1 34 2 47h-70l14 40h59c20 165 99 299 278 299c86 0 150 -30 184 -60z" />
    <glyph glyph-name="afii61289" unicode="&#x2113;" horiz-adv-x="518" 
d="M461 143l28 -19c-44 -80 -108 -128 -193 -128c-122 0 -172 101 -173 210v14c-21 -16 -45 -36 -68 -55l-19 31c31 26 61 49 87 74v309c0 197 85 247 152 247c86 0 127 -74 127 -164c0 -141 -97 -274 -237 -408v-28c0 -141 68 -194 137 -194c77 0 133 61 159 111zM165 587
v-283c110 114 199 228 199 352c0 77 -25 133 -92 133c-47 0 -107 -52 -107 -202z" />
    <glyph glyph-name="estimated" unicode="&#x212e;" horiz-adv-x="933" 
d="M896 366h-696c-4 0 -6 -1 -6 -4v-211c0 -9 4 -17 9 -24c68 -70 161 -115 264 -115c111 0 209 51 277 129h62c-77 -91 -202 -150 -340 -150c-238 0 -430 173 -430 386c0 214 192 387 430 387s430 -173 430 -387v-11zM738 394v211c0 10 -3 19 -10 26
c-68 66 -159 110 -261 110s-195 -45 -263 -114c-6 -7 -10 -16 -10 -26v-207c0 -3 2 -7 6 -7h533c4 0 5 4 5 7z" />
    <glyph glyph-name="partialdiff" unicode="&#x2202;" horiz-adv-x="587" 
d="M112 746l-21 31c37 29 91 58 173 58c133 0 265 -128 265 -402c0 -233 -88 -439 -275 -439c-139 0 -204 122 -204 244c0 163 114 267 233 267c112 0 181 -84 199 -119h1c2 16 2 40 2 56c0 225 -109 356 -223 356c-70 0 -118 -27 -150 -52zM256 31h1c121 0 200 137 218 299
c-20 55 -89 137 -188 137c-102 0 -191 -99 -191 -226c0 -120 63 -210 160 -210z" />
    <glyph glyph-name="product" unicode="&#x220f;" horiz-adv-x="764" 
d="M734 704h-129v-807h-44v807h-359v-807h-44v807h-129v41h705v-41z" />
    <glyph glyph-name="summation" unicode="&#x2211;" horiz-adv-x="613" 
d="M585 -103h-560v32l319 390l-304 395v31h529v-40h-462v-4l291 -377l-310 -380v-3h497v-44z" />
    <glyph glyph-name="uni2219" unicode="&#x2219;" horiz-adv-x="310" 
d="M155 297c23 0 41 -18 41 -41s-18 -41 -41 -41s-41 18 -41 41s18 41 41 41z" />
    <glyph glyph-name="radical" unicode="&#x221a;" horiz-adv-x="617" 
d="M613 880l-245 -1046h-48l-185 513l-83 -31l-13 32l126 48l160 -439c6 -21 13 -47 17 -66l2 -1c2 19 9 44 13 64l218 926h38z" />
    <glyph glyph-name="infinity" unicode="&#x221e;" horiz-adv-x="854" 
d="M796 311v-1c0 -99 -78 -165 -162 -165c-74 0 -126 53 -206 136c-59 -65 -120 -136 -211 -136c-87 0 -159 73 -159 162c0 93 70 164 166 164c84 0 149 -71 208 -137c64 70 121 137 211 137c95 0 153 -67 153 -160zM223 181h1c76 0 136 78 184 125
c-52 59 -109 132 -194 132c-74 0 -116 -65 -116 -133c1 -68 49 -124 125 -124zM638 438h-1c-79 0 -144 -90 -185 -128c78 -80 124 -129 186 -129c76 0 119 63 119 126c0 85 -53 131 -119 131z" />
    <glyph glyph-name="integral" unicode="&#x222b;" horiz-adv-x="366" 
d="M353 887l-13 -32c-9 7 -28 13 -42 13c-17 0 -41 -6 -56 -24c-32 -34 -43 -91 -43 -198c0 -163 14 -389 14 -552c0 -124 -26 -183 -51 -217c-20 -26 -53 -41 -88 -41c-25 0 -54 11 -65 19l12 33c9 -4 30 -14 53 -14c18 0 39 10 52 26c24 29 44 77 44 196
c0 163 -15 394 -15 554c0 112 14 177 55 217c25 26 56 37 87 37c20 0 45 -9 56 -17z" />
    <glyph glyph-name="approxequal" unicode="&#x2248;" horiz-adv-x="635" 
d="M554 449l23 -19c-27 -52 -66 -98 -137 -98c-46 0 -78 19 -135 48c-34 19 -70 38 -109 38c-53 0 -86 -39 -114 -84l-25 19c34 64 86 99 147 99c54 0 97 -32 129 -49c39 -19 66 -37 111 -37c47 0 78 26 110 83zM554 273l23 -20c-27 -51 -66 -97 -137 -97
c-46 0 -78 19 -135 48c-35 19 -70 38 -108 38c-55 0 -87 -40 -115 -84l-25 18c34 65 86 100 147 100c55 0 96 -32 129 -48c38 -20 66 -38 112 -38c47 0 77 26 109 83z" />
    <glyph glyph-name="notequal" unicode="&#x2260;" horiz-adv-x="635" 
d="M441 540l-55 -116h190v-36h-206l-81 -169h287v-35h-303l-63 -135l-29 15l56 120h-178v35h195l80 169h-275v36h291l62 131z" />
    <glyph glyph-name="lessequal" unicode="&#x2264;" horiz-adv-x="635" 
d="M573 95l-507 249v36l507 248v-44l-465 -220v-2l465 -223v-44zM575 12h-517v36h517v-36z" />
    <glyph glyph-name="greaterequal" unicode="&#x2265;" horiz-adv-x="635" 
d="M66 628l507 -248v-36l-507 -249v44l464 221v3l-464 221v44zM575 12h-516v36h516v-36z" />
    <glyph glyph-name="lozenge" unicode="&#x25ca;" horiz-adv-x="618" 
d="M554 372l-227 -421h-37l-226 421l226 422h38zM510 371l-180 332c-8 16 -17 38 -21 50h-2c-6 -15 -12 -32 -22 -50l-178 -329l181 -334c11 -21 17 -37 20 -48h3c4 11 13 33 20 48z" />
    <glyph glyph-name="uni00A0" unicode="&#xa0;" horiz-adv-x="310" 
 />
    <glyph glyph-name="uni00AD" unicode="&#xad;" horiz-adv-x="190" 
d="M0 342h190v-45h-190v45z" />
    <glyph glyph-name="uni02C9" unicode="&#x2c9;" horiz-adv-x="456" 
d="M75 674h305v-45h-305v45z" />
    <glyph glyph-name="uni03A9" unicode="&#x3a9;" horiz-adv-x="815" 
d="M240 38v3c-87 70 -161 192 -161 351c0 222 150 365 332 365c191 0 325 -163 325 -362c0 -167 -82 -294 -163 -354v-3h179v-38h-252v28c96 58 191 187 191 362c-1 146 -96 330 -281 330c-174 0 -286 -152 -286 -332c0 -166 96 -303 190 -360v-28h-251v38h177z" />
    <glyph glyph-name="uni2215" unicode="&#x2215;" horiz-adv-x="129" 
d="M272 772l32 -18l-447 -771l-32 18z" />
    <hkern u1="&#x2019;" u2="&#x2019;" k="20" />
    <hkern u1="T" u2="&#xfc;" k="50" />
    <hkern u1="T" u2="&#x161;" k="25" />
    <hkern u1="T" u2="&#xf2;" k="50" />
    <hkern u1="T" u2="&#xf6;" k="50" />
    <hkern u1="T" u2="&#xec;" k="-8" />
    <hkern u1="T" u2="&#xee;" k="-3" />
    <hkern u1="T" u2="&#xed;" k="8" />
    <hkern u1="T" u2="&#xe8;" k="75" />
    <hkern u1="T" u2="&#xeb;" k="50" />
    <hkern u1="T" u2="&#xea;" k="75" />
    <hkern u1="T" u2="&#xe3;" k="50" />
    <hkern u1="T" u2="&#xe5;" k="50" />
    <hkern u1="T" u2="&#xe0;" k="50" />
    <hkern u1="T" u2="&#xe4;" k="25" />
    <hkern u1="T" u2="&#xe2;" k="50" />
    <hkern u1="V" u2="&#xf6;" k="40" />
    <hkern u1="V" u2="&#xf4;" k="60" />
    <hkern u1="V" u2="&#xee;" k="-4" />
    <hkern u1="V" u2="&#xe8;" k="40" />
    <hkern u1="V" u2="&#xeb;" k="40" />
    <hkern u1="V" u2="&#xea;" k="40" />
    <hkern u1="V" u2="&#xe3;" k="40" />
    <hkern u1="V" u2="&#xe5;" k="40" />
    <hkern u1="V" u2="&#xe0;" k="40" />
    <hkern u1="V" u2="&#xe4;" k="40" />
    <hkern u1="V" u2="&#xe2;" k="40" />
    <hkern u1="W" u2="&#xfc;" k="30" />
    <hkern u1="W" u2="&#xf6;" k="45" />
    <hkern u1="W" u2="&#xea;" k="45" />
    <hkern u1="W" u2="&#xe4;" k="45" />
    <hkern u1="Y" u2="&#xfc;" k="45" />
    <hkern u1="Y" u2="&#xf6;" k="75" />
    <hkern u1="&#x2018;" u2="&#x2018;" k="20" />
    <hkern g1="f,fi,fl"
	g2="quoteright"
	k="-20" />
    <hkern g1="f,fi,fl"
	g2="f,fi,fl,germandbls"
	k="-20" />
    <hkern g1="F"
	g2="A,AE,Aacute,Acircumflex,Adieresis,Agrave,Aring,Atilde"
	k="60" />
    <hkern g1="F"
	g2="comma"
	k="150" />
    <hkern g1="F"
	g2="period"
	k="150" />
    <hkern g1="L,Lslash"
	g2="T"
	k="30" />
    <hkern g1="L,Lslash"
	g2="V"
	k="40" />
    <hkern g1="L,Lslash"
	g2="W"
	k="30" />
    <hkern g1="L,Lslash"
	g2="y,yacute,ydieresis"
	k="20" />
    <hkern g1="L,Lslash"
	g2="Y,Yacute,Ydieresis"
	k="40" />
    <hkern g1="L,Lslash"
	g2="quoteright"
	k="80" />
    <hkern g1="P"
	g2="A,AE,Aacute,Acircumflex,Adieresis,Agrave,Aring,Atilde"
	k="80" />
    <hkern g1="P"
	g2="comma"
	k="135" />
    <hkern g1="P"
	g2="period"
	k="135" />
    <hkern g1="r"
	g2="v"
	k="-40" />
    <hkern g1="r"
	g2="w"
	k="-40" />
    <hkern g1="r"
	g2="y,yacute,ydieresis"
	k="-40" />
    <hkern g1="r"
	g2="f,fi,fl,germandbls"
	k="-20" />
    <hkern g1="r"
	g2="comma"
	k="100" />
    <hkern g1="r"
	g2="period"
	k="100" />
    <hkern g1="r"
	g2="m"
	k="-8" />
    <hkern g1="r"
	g2="n,ntilde"
	k="-8" />
    <hkern g1="r"
	g2="q"
	k="20" />
    <hkern g1="r"
	g2="t"
	k="-20" />
    <hkern g1="r"
	g2="x"
	k="-40" />
    <hkern g1="R"
	g2="T"
	k="20" />
    <hkern g1="R"
	g2="Y,Yacute,Ydieresis"
	k="20" />
    <hkern g1="T"
	g2="w"
	k="80" />
    <hkern g1="T"
	g2="y,yacute,ydieresis"
	k="80" />
    <hkern g1="T"
	g2="A,AE,Aacute,Acircumflex,Adieresis,Agrave,Aring,Atilde"
	k="80" />
    <hkern g1="T"
	g2="comma"
	k="100" />
    <hkern g1="T"
	g2="period"
	k="100" />
    <hkern g1="T"
	g2="a,ae,aacute,acircumflex,adieresis,agrave,aring,atilde"
	k="100" />
    <hkern g1="T"
	g2="c,ccedilla"
	k="100" />
    <hkern g1="T"
	g2="e,eacute,ecircumflex,edieresis,egrave"
	k="100" />
    <hkern g1="T"
	g2="i,iacute,icircumflex,idieresis,igrave"
	k="15" />
    <hkern g1="T"
	g2="o,oslash,oe,oacute,ocircumflex,odieresis,ograve,otilde"
	k="100" />
    <hkern g1="T"
	g2="r"
	k="80" />
    <hkern g1="T"
	g2="s,scaron"
	k="100" />
    <hkern g1="T"
	g2="u,uacute,ucircumflex,udieresis,ugrave"
	k="100" />
    <hkern g1="T"
	g2="colon"
	k="100" />
    <hkern g1="T"
	g2="hyphen"
	k="80" />
    <hkern g1="T"
	g2="semicolon"
	k="100" />
    <hkern g1="v"
	g2="comma"
	k="80" />
    <hkern g1="v"
	g2="period"
	k="80" />
    <hkern g1="V"
	g2="y,yacute,ydieresis"
	k="20" />
    <hkern g1="V"
	g2="A,AE,Aacute,Acircumflex,Adieresis,Agrave,Aring,Atilde"
	k="100" />
    <hkern g1="V"
	g2="comma"
	k="120" />
    <hkern g1="V"
	g2="period"
	k="120" />
    <hkern g1="V"
	g2="a,ae,aacute,acircumflex,adieresis,agrave,aring,atilde"
	k="80" />
    <hkern g1="V"
	g2="e,eacute,ecircumflex,edieresis,egrave"
	k="80" />
    <hkern g1="V"
	g2="i,iacute,icircumflex,idieresis,igrave"
	k="20" />
    <hkern g1="V"
	g2="o,oslash,oe,oacute,ocircumflex,odieresis,ograve,otilde"
	k="80" />
    <hkern g1="V"
	g2="r"
	k="40" />
    <hkern g1="V"
	g2="u,uacute,ucircumflex,udieresis,ugrave"
	k="60" />
    <hkern g1="V"
	g2="colon"
	k="80" />
    <hkern g1="V"
	g2="hyphen"
	k="30" />
    <hkern g1="V"
	g2="semicolon"
	k="80" />
    <hkern g1="w"
	g2="comma"
	k="60" />
    <hkern g1="w"
	g2="period"
	k="60" />
    <hkern g1="W"
	g2="A,AE,Aacute,Acircumflex,Adieresis,Agrave,Aring,Atilde"
	k="100" />
    <hkern g1="W"
	g2="comma"
	k="80" />
    <hkern g1="W"
	g2="period"
	k="80" />
    <hkern g1="W"
	g2="a,ae,aacute,acircumflex,adieresis,agrave,aring,atilde"
	k="60" />
    <hkern g1="W"
	g2="e,eacute,ecircumflex,edieresis,egrave"
	k="60" />
    <hkern g1="W"
	g2="o,oslash,oe,oacute,ocircumflex,odieresis,ograve,otilde"
	k="60" />
    <hkern g1="W"
	g2="r"
	k="20" />
    <hkern g1="W"
	g2="u,uacute,ucircumflex,udieresis,ugrave"
	k="40" />
    <hkern g1="W"
	g2="colon"
	k="20" />
    <hkern g1="W"
	g2="semicolon"
	k="20" />
    <hkern g1="y,yacute,ydieresis"
	g2="comma"
	k="80" />
    <hkern g1="y,yacute,ydieresis"
	g2="period"
	k="80" />
    <hkern g1="Y,Yacute,Ydieresis"
	g2="v"
	k="40" />
    <hkern g1="Y,Yacute,Ydieresis"
	g2="A,AE,Aacute,Acircumflex,Adieresis,Agrave,Aring,Atilde"
	k="100" />
    <hkern g1="Y,Yacute,Ydieresis"
	g2="comma"
	k="100" />
    <hkern g1="Y,Yacute,Ydieresis"
	g2="period"
	k="100" />
    <hkern g1="Y,Yacute,Ydieresis"
	g2="q"
	k="100" />
    <hkern g1="Y,Yacute,Ydieresis"
	g2="a,ae,aacute,acircumflex,adieresis,agrave,aring,atilde"
	k="100" />
    <hkern g1="Y,Yacute,Ydieresis"
	g2="e,eacute,ecircumflex,edieresis,egrave"
	k="100" />
    <hkern g1="Y,Yacute,Ydieresis"
	g2="i,iacute,icircumflex,idieresis,igrave"
	k="20" />
    <hkern g1="Y,Yacute,Ydieresis"
	g2="o,oslash,oe,oacute,ocircumflex,odieresis,ograve,otilde"
	k="100" />
    <hkern g1="Y,Yacute,Ydieresis"
	g2="u,uacute,ucircumflex,udieresis,ugrave"
	k="60" />
    <hkern g1="Y,Yacute,Ydieresis"
	g2="colon"
	k="100" />
    <hkern g1="Y,Yacute,Ydieresis"
	g2="hyphen"
	k="60" />
    <hkern g1="Y,Yacute,Ydieresis"
	g2="semicolon"
	k="100" />
    <hkern g1="Y,Yacute,Ydieresis"
	g2="p"
	k="80" />
    <hkern g1="quoteright"
	g2="t"
	k="20" />
    <hkern g1="quoteright"
	g2="s,scaron"
	k="100" />
  </font>
</defs></svg>
