<svg xmlns="http://www.w3.org/2000/svg" viewBox="0 0 93.05 82.28">
  <title>icon-Ресурс 21</title>
  <g id="Слой_2" data-name="Слой 2">
    <g id="Layer_1" data-name="Layer 1">
      <path d="M92.18,9.59,66.13,54.72,52.06,79.08a6.39,6.39,0,0,1-11.07,0L.87,9.59A6.39,6.39,0,0,1,6.4,0H86.65A6.39,6.39,0,0,1,92.18,9.59ZM46.52,44.51a6.13,6.13,0,1,0,6.13,6.13A6.1,6.1,0,0,0,46.52,44.51ZM41.6,41.27h9.9V15.18H41.6Z" fill="#fff"/>
    </g>
  </g>
</svg>
